Projetos_digitais/Pratica/simulation/qsim/Lab4.msim.vcd
$comment
	File created using the following command:
		vcd file Lab4.msim.vcd -direction
$end
$date
	Mon Oct 17 18:34:04 2022
$end
$version
	ModelSim Version 10.5b
$end
$timescale
	1ps
$end

$scope module Lab4_vlg_vec_tst $end
$var reg 1 ! Clear $end
$var reg 1 " In $end
$var reg 1 # Inv $end
$var wire 1 $ O0 $end
$var wire 1 % O1 $end
$var wire 1 & O2 $end
$var wire 1 ' O3 $end

$scope module i1 $end
$var wire 1 ( gnd $end
$var wire 1 ) vcc $end
$var wire 1 * unknown $end
$var tri1 1 + devclrn $end
$var tri1 1 , devpor $end
$var tri1 1 - devoe $end
$var wire 1 . ~QUARTUS_CREATED_GND~I_combout $end
$var wire 1 / ~QUARTUS_CREATED_UNVM~~busy $end
$var wire 1 0 ~QUARTUS_CREATED_ADC1~~eoc $end
$var wire 1 1 ~QUARTUS_CREATED_ADC2~~eoc $end
$var wire 1 2 O0~output_o $end
$var wire 1 3 O1~output_o $end
$var wire 1 4 O2~output_o $end
$var wire 1 5 O3~output_o $end
$var wire 1 6 In~input_o $end
$var wire 1 7 inst|inst~0_combout $end
$var wire 1 8 inst|inst~feeder_combout $end
$var wire 1 9 Clear~input_o $end
$var wire 1 : Clear~inputclkctrl_outclk $end
$var wire 1 ; inst|inst~q $end
$var wire 1 < inst|inst1~0_combout $end
$var wire 1 = inst|inst1~feeder_combout $end
$var wire 1 > inst|inst1~q $end
$var wire 1 ? inst|inst2~0_combout $end
$var wire 1 @ inst|inst2~q $end
$var wire 1 A inst|inst3~0_combout $end
$var wire 1 B inst|inst3~q $end
$var wire 1 C inst3|inst30~0_combout $end
$var wire 1 D Inv~input_o $end
$var wire 1 E inst3|inst30~1_combout $end
$var wire 1 F inst3|inst30~2_combout $end
$var wire 1 G inst3|inst19~4_combout $end
$var wire 1 H inst3|inst19~5_combout $end
$var wire 1 I inst3|inst14~3_combout $end
$var wire 1 J inst3|inst14~2_combout $end
$var wire 1 K inst3|inst14~4_combout $end
$var wire 1 L inst3|inst4|inst3~2_combout $end
$var wire 1 M inst3|inst4|inst3~3_combout $end
$upscope $end
$upscope $end
$enddefinitions $end
#0
$dumpvars
0!
0"
0#
0$
1%
0&
0'
0(
1)
x*
1+
1,
1-
0.
z/
z0
z1
02
13
04
05
06
17
18
09
0:
0;
1<
1=
0>
1?
0@
1A
0B
0C
0D
1E
0F
1G
1H
1I
0J
0K
0L
1M
$end
#10000
1!
1"
19
1:
16
1;
1J
07
1F
12
1$
1K
08
14
1&
#20000
0"
06
#30000
1"
16
0;
0J
17
0F
02
0$
0K
18
04
0&
1>
1L
1J
0I
0E
1C
0<
0M
1K
1F
0=
12
14
15
1'
1&
1$
#40000
0"
06
#50000
1"
16
1;
0C
07
0F
08
02
0$
#60000
0"
06
#70000
1"
16
0;
1C
17
1F
18
12
1$
0>
0L
0J
1I
1E
0C
1<
1M
0K
0F
1=
02
04
05
0'
0&
0$
1@
1L
0G
0E
1C
0?
1K
14
0M
1&
0H
1F
12
03
15
1'
0%
1$
#80000
0"
06
#90000
1"
16
1;
1J
0C
07
0F
08
02
0$
#100000
0"
06
#110000
1"
16
0;
0J
1C
17
1F
18
12
1$
1>
0L
1J
0I
0C
0<
1M
0K
0F
0=
02
04
05
0'
0&
0$
#120000
0"
06
#130000
1"
16
1;
1L
07
1H
13
0M
1%
08
15
1'
#140000
0"
06
#150000
1"
16
0;
0L
17
0H
03
1M
0%
18
05
0'
0>
1L
0J
1I
1C
1<
0M
1K
1F
1=
12
14
15
1'
1&
1$
0@
0L
1G
1E
0C
1?
0K
04
1M
0&
1H
0F
02
13
05
0'
1%
0$
1B
0M
1F
0A
12
15
1'
1$
#160000
0"
06
#170000
1"
16
1;
0I
0G
07
0F
02
0$
0H
08
03
0%
#180000
0"
06
#190000
1"
16
0;
1I
1G
17
1H
1F
12
13
1%
1$
18
1>
1L
0I
0<
1M
0=
05
0'
#200000
0"
06
#210000
1"
16
1;
1J
1I
0G
1C
07
0F
02
0$
1K
0H
1F
08
12
03
14
1&
0%
1$
#220000
0"
06
#230000
1"
16
0;
0J
0I
1G
0C
17
0K
1H
18
13
04
0&
1%
0>
0L
1I
1<
0M
1=
15
1'
1@
1L
0G
0E
0?
1K
14
1M
1&
0F
02
05
0'
0$
#240000
0"
06
#250000
1"
16
1;
0I
1C
07
0H
03
0%
0K
1F
08
12
04
0&
1$
#260000
0"
06
#270000
1"
16
0;
1I
0C
17
1H
13
1%
1K
0F
18
02
14
1&
0$
1>
0L
0I
1E
0<
0H
03
0M
0%
0K
1F
0=
12
04
15
1'
0&
1$
#280000
0"
06
#290000
1"
16
1;
1L
1J
1I
07
0F
02
1M
0$
1K
08
14
05
0'
1&
#300000
0"
06
#310000
1"
16
0;
0L
0J
0I
17
1F
12
0M
1$
0K
18
04
15
1'
0&
0>
1L
1I
0E
1<
1H
13
1M
1%
1K
0F
1=
02
14
05
0'
1&
0$
0@
0L
1G
1E
1?
0K
04
0M
0&
1F
12
15
1'
1$
0B
1M
0F
1A
02
05
0'
0$
#320000
0"
06
#330000
1"
16
1;
1J
07
1F
12
1$
1K
08
14
1&
#340000
0"
06
#350000
1"
16
0;
0J
17
0F
02
0$
0K
18
04
0&
1>
1L
1J
0I
0E
1C
0<
0M
1K
1F
0=
12
14
15
1'
1&
1$
#360000
0"
06
#370000
1"
16
1;
0C
07
0F
08
02
0$
#380000
0"
06
#390000
1"
16
0;
1C
17
1F
18
12
1$
0>
0L
0J
1I
1E
0C
1<
1M
0K
0F
1=
02
04
05
0'
0&
0$
1@
1L
0G
0E
1C
0?
1K
14
0M
1&
0H
1F
12
03
15
1'
0%
1$
#400000
0"
06
#410000
1"
16
1;
1J
0C
07
0F
08
02
0$
#420000
0"
06
#430000
1"
16
0;
0J
1C
17
1F
18
12
1$
1>
0L
1J
0I
0C
0<
1M
0K
0F
0=
02
04
05
0'
0&
0$
#440000
0"
06
#450000
1"
16
1;
1L
07
1H
13
0M
1%
08
15
1'
#460000
0"
06
#470000
1"
16
0;
0L
17
0H
03
1M
0%
18
05
0'
0>
1L
0J
1I
1C
1<
0M
1K
1F
1=
12
14
15
1'
1&
1$
0@
0L
1G
1E
0C
1?
0K
04
1M
0&
1H
0F
02
13
05
0'
1%
0$
1B
0M
1F
0A
12
15
1'
1$
#480000
0"
06
#490000
1"
16
1;
0I
0G
07
0F
02
0$
0H
08
03
0%
#500000
0"
06
#510000
1"
16
0;
1I
1G
17
1H
1F
12
13
1%
1$
18
1>
1L
0I
0<
1M
0=
05
0'
#520000
0"
06
#530000
1"
16
1;
1J
1I
0G
1C
07
0F
02
0$
1K
0H
1F
08
12
03
14
1&
0%
1$
#540000
0"
06
#550000
1"
16
0;
0J
0I
1G
0C
17
0K
1H
18
13
04
0&
1%
0>
0L
1I
1<
0M
1=
15
1'
1@
1L
0G
0E
0?
1K
14
1M
1&
0F
02
05
0'
0$
#560000
0"
06
#570000
1"
16
1;
0I
1C
07
0H
03
0%
0K
1F
08
12
04
0&
1$
#580000
0"
06
#590000
1"
16
0;
1I
0C
17
1H
13
1%
1K
0F
18
02
14
1&
0$
1>
0L
0I
1E
0<
0H
03
0M
0%
0K
1F
0=
12
04
15
1'
0&
1$
#600000
0"
06
#610000
1"
16
1;
1L
1J
1I
07
0F
02
1M
0$
1K
08
14
05
0'
1&
#620000
0"
06
#630000
1"
16
0;
0L
0J
0I
17
1F
12
0M
1$
0K
18
04
15
1'
0&
0>
1L
1I
0E
1<
1H
13
1M
1%
1K
0F
1=
02
14
05
0'
1&
0$
0@
0L
1G
1E
1?
0K
04
0M
0&
1F
12
15
1'
1$
0B
1M
0F
1A
02
05
0'
0$
#640000
0"
06
#650000
1"
16
1;
1J
07
1F
12
1$
1K
08
14
1&
#660000
0"
06
#670000
1"
16
0;
0J
17
0F
02
0$
0K
18
04
0&
1>
1L
1J
0I
0E
1C
0<
0M
1K
1F
0=
12
14
15
1'
1&
1$
#680000
0"
06
#690000
1"
16
1;
0C
07
0F
08
02
0$
#700000
0"
06
#710000
1"
16
0;
1C
17
1F
18
12
1$
0>
0L
0J
1I
1E
0C
1<
1M
0K
0F
1=
02
04
05
0'
0&
0$
1@
1L
0G
0E
1C
0?
1K
14
0M
1&
0H
1F
12
03
15
1'
0%
1$
#720000
0"
06
#730000
1"
16
1;
1J
0C
07
0F
08
02
0$
#740000
0"
06
#750000
1"
16
0;
0J
1C
17
1F
18
12
1$
1>
0L
1J
0I
0C
0<
1M
0K
0F
0=
02
04
05
0'
0&
0$
#760000
0"
06
#770000
1"
16
1;
1L
07
1H
13
0M
1%
08
15
1'
#780000
0"
06
#790000
1"
16
0;
0L
17
0H
03
1M
0%
18
05
0'
0>
1L
0J
1I
1C
1<
0M
1K
1F
1=
12
14
15
1'
1&
1$
0@
0L
1G
1E
0C
1?
0K
04
1M
0&
1H
0F
02
13
05
0'
1%
0$
1B
0M
1F
0A
12
15
1'
1$
#800000
0"
06
#810000
1"
16
1;
0I
0G
07
0F
02
0$
0H
08
03
0%
#820000
0"
06
#830000
1"
16
0;
1I
1G
17
1H
1F
12
13
1%
1$
18
1>
1L
0I
0<
1M
0=
05
0'
#840000
0"
06
#850000
1"
16
1;
1J
1I
0G
1C
07
0F
02
0$
1K
0H
1F
08
12
03
14
1&
0%
1$
#860000
0"
06
#870000
1"
16
0;
0J
0I
1G
0C
17
0K
1H
18
13
04
0&
1%
0>
0L
1I
1<
0M
1=
15
1'
1@
1L
0G
0E
0?
1K
14
1M
1&
0F
02
05
0'
0$
#880000
0"
06
#890000
1"
16
1;
0I
1C
07
0H
03
0%
0K
1F
08
12
04
0&
1$
#900000
0"
06
#910000
1"
16
0;
1I
0C
17
1H
13
1%
1K
0F
18
02
14
1&
0$
1>
0L
0I
1E
0<
0H
03
0M
0%
0K
1F
0=
12
04
15
1'
0&
1$
#920000
0"
06
#930000
1"
16
1;
1L
1J
1I
07
0F
02
1M
0$
1K
08
14
05
0'
1&
#940000
0"
06
#950000
1"
16
0;
0L
0J
0I
17
1F
12
0M
1$
0K
18
04
15
1'
0&
0>
1L
1I
0E
1<
1H
13
1M
1%
1K
0F
1=
02
14
05
0'
1&
0$
0@
0L
1G
1E
1?
0K
04
0M
0&
1F
12
15
1'
1$
0B
1M
0F
1A
02
05
0'
0$
#960000
0"
06
#970000
1"
16
1;
1J
07
1F
12
1$
1K
08
14
1&
#980000
0"
06
#990000
1"
16
0;
0J
17
0F
02
0$
0K
18
04
0&
1>
1L
1J
0I
0E
1C
0<
0M
1K
1F
0=
12
14
15
1'
1&
1$
