Projetos_digitais/Lab6/simulation/qsim/Lab6.msim.vcd
$comment
	File created using the following command:
		vcd file Lab6.msim.vcd -direction
$end
$date
	Mon Nov 07 20:01:25 2022
$end
$version
	ModelSim Version 10.5b
$end
$timescale
	1ps
$end

$scope module lab6_vhd_vec_tst $end
$var wire 1 ! A $end
$var wire 1 " B $end
$var wire 1 # C $end
$var wire 1 $ Clock $end
$var wire 1 % DS $end
$var wire 1 & Entrada $end
$var wire 1 ' reset $end

$scope module i1 $end
$var wire 1 ( gnd $end
$var wire 1 ) vcc $end
$var wire 1 * unknown $end
$var wire 1 + devoe $end
$var wire 1 , devclrn $end
$var wire 1 - devpor $end
$var wire 1 . ww_devoe $end
$var wire 1 / ww_devclrn $end
$var wire 1 0 ww_devpor $end
$var wire 1 1 ww_DS $end
$var wire 1 2 ww_Entrada $end
$var wire 1 3 ww_reset $end
$var wire 1 4 ww_Clock $end
$var wire 1 5 ww_A $end
$var wire 1 6 ww_B $end
$var wire 1 7 ww_C $end
$var wire 1 8 \~QUARTUS_CREATED_ADC1~_CHSEL_bus\ [4] $end
$var wire 1 9 \~QUARTUS_CREATED_ADC1~_CHSEL_bus\ [3] $end
$var wire 1 : \~QUARTUS_CREATED_ADC1~_CHSEL_bus\ [2] $end
$var wire 1 ; \~QUARTUS_CREATED_ADC1~_CHSEL_bus\ [1] $end
$var wire 1 < \~QUARTUS_CREATED_ADC1~_CHSEL_bus\ [0] $end
$var wire 1 = \~QUARTUS_CREATED_ADC2~_CHSEL_bus\ [4] $end
$var wire 1 > \~QUARTUS_CREATED_ADC2~_CHSEL_bus\ [3] $end
$var wire 1 ? \~QUARTUS_CREATED_ADC2~_CHSEL_bus\ [2] $end
$var wire 1 @ \~QUARTUS_CREATED_ADC2~_CHSEL_bus\ [1] $end
$var wire 1 A \~QUARTUS_CREATED_ADC2~_CHSEL_bus\ [0] $end
$var wire 1 B \reset~inputclkctrl_INCLK_bus\ [3] $end
$var wire 1 C \reset~inputclkctrl_INCLK_bus\ [2] $end
$var wire 1 D \reset~inputclkctrl_INCLK_bus\ [1] $end
$var wire 1 E \reset~inputclkctrl_INCLK_bus\ [0] $end
$var wire 1 F \Clock~inputclkctrl_INCLK_bus\ [3] $end
$var wire 1 G \Clock~inputclkctrl_INCLK_bus\ [2] $end
$var wire 1 H \Clock~inputclkctrl_INCLK_bus\ [1] $end
$var wire 1 I \Clock~inputclkctrl_INCLK_bus\ [0] $end
$var wire 1 J \~QUARTUS_CREATED_GND~I_combout\ $end
$var wire 1 K \~QUARTUS_CREATED_UNVM~~busy\ $end
$var wire 1 L \~QUARTUS_CREATED_ADC1~~eoc\ $end
$var wire 1 M \~QUARTUS_CREATED_ADC2~~eoc\ $end
$var wire 1 N \DS~output_o\ $end
$var wire 1 O \A~output_o\ $end
$var wire 1 P \B~output_o\ $end
$var wire 1 Q \C~output_o\ $end
$var wire 1 R \Clock~input_o\ $end
$var wire 1 S \Clock~inputclkctrl_outclk\ $end
$var wire 1 T \Entrada~input_o\ $end
$var wire 1 U \inst|inst25~0_combout\ $end
$var wire 1 V \reset~input_o\ $end
$var wire 1 W \reset~inputclkctrl_outclk\ $end
$var wire 1 X \inst|inst25~q\ $end
$var wire 1 Y \inst|inst1~0_combout\ $end
$var wire 1 Z \inst|inst1~q\ $end
$var wire 1 [ \inst|inst2~0_combout\ $end
$var wire 1 \ \inst|inst2~q\ $end
$var wire 1 ] \inst25|inst15~combout\ $end
$upscope $end
$upscope $end
$enddefinitions $end
#0
$dumpvars
0!
0"
0#
0$
0%
0&
1'
0(
1)
x*
1+
1,
1-
1.
1/
10
01
02
13
04
05
06
07
0J
zK
zL
zM
0N
0O
0P
0Q
0R
0S
0T
0U
1V
1W
0X
0Y
0Z
0[
0\
0]
1F
1G
1H
0I
1B
1C
1D
1E
08
09
0:
0;
0<
0=
0>
0?
0@
0A
$end
#10000
1$
14
1R
1I
1S
#20000
0$
04
0R
0I
0S
#30000
1$
1&
14
12
1T
1R
1I
1[
1S
1\
1Q
17
1#
#40000
0$
0&
04
02
0T
0R
0I
1Y
0[
0S
#50000
1$
14
1R
1I
1S
1Z
0\
0Q
1P
0Y
07
16
0#
1"
#60000
0$
04
0R
0I
0S
#70000
1$
1&
14
12
1T
1R
1I
1Y
1[
1S
1\
1Q
0Y
17
1#
#80000
0$
0&
04
02
0T
0R
0I
1U
0[
0S
#90000
1$
14
1R
1I
1S
1X
0Z
0\
0Q
0P
1O
1[
07
06
15
0#
0"
1!
#100000
0$
04
0R
0I
0S
#110000
1$
14
1R
1I
1S
1\
1Q
0U
0[
17
1#
#120000
0$
04
0R
0I
0S
#130000
1$
1&
14
12
1T
1R
1I
1U
1Y
1S
1Z
0\
0Q
1P
0U
0Y
1]
07
16
1N
0#
1"
11
1%
#140000
0$
0&
04
02
0T
0R
0I
0]
0N
0S
01
0%
#150000
1$
1&
14
12
1T
1R
1I
1]
1N
1S
11
1%
0X
0Z
0P
0O
1[
0]
06
05
0N
0"
0!
01
0%
#160000
0$
0&
04
02
0T
0R
0I
0[
0S
#170000
1$
14
1R
1I
1S
#180000
0$
04
0R
0I
0S
#190000
1$
14
1R
1I
1S
#200000
0$
04
0R
0I
0S
#210000
1$
14
1R
1I
1S
#220000
0$
04
0R
0I
0S
#230000
1$
14
1R
1I
1S
#240000
0$
04
0R
0I
0S
#250000
1$
14
1R
1I
1S
#260000
0$
04
0R
0I
0S
#270000
1$
14
1R
1I
1S
#280000
0$
04
0R
0I
0S
#290000
1$
14
1R
1I
1S
#300000
0$
04
0R
0I
0S
#310000
1$
14
1R
1I
1S
#320000
0$
04
0R
0I
0S
#330000
1$
14
1R
1I
1S
#340000
0$
04
0R
0I
0S
#350000
1$
14
1R
1I
1S
#360000
0$
04
0R
0I
0S
#370000
1$
14
1R
1I
1S
#380000
0$
04
0R
0I
0S
#390000
1$
14
1R
1I
1S
#400000
0$
04
0R
0I
0S
#410000
1$
14
1R
1I
1S
#420000
0$
04
0R
0I
0S
#430000
1$
14
1R
1I
1S
#440000
0$
04
0R
0I
0S
#450000
1$
14
1R
1I
1S
#460000
0$
04
0R
0I
0S
#470000
1$
14
1R
1I
1S
#480000
0$
04
0R
0I
0S
#490000
1$
14
1R
1I
1S
#500000
0$
04
0R
0I
0S
#510000
1$
14
1R
1I
1S
#520000
0$
04
0R
0I
0S
#530000
1$
14
1R
1I
1S
#540000
0$
04
0R
0I
0S
#550000
1$
14
1R
1I
1S
#560000
0$
04
0R
0I
0S
#570000
1$
14
1R
1I
1S
#580000
0$
04
0R
0I
0S
#590000
1$
14
1R
1I
1S
#600000
0$
04
0R
0I
0S
#610000
1$
14
1R
1I
1S
#620000
0$
04
0R
0I
0S
#630000
1$
14
1R
1I
1S
#640000
0$
04
0R
0I
0S
#650000
1$
14
1R
1I
1S
#660000
0$
04
0R
0I
0S
#670000
1$
14
1R
1I
1S
#680000
0$
04
0R
0I
0S
#690000
1$
14
1R
1I
1S
#700000
0$
04
0R
0I
0S
#710000
1$
14
1R
1I
1S
#720000
0$
04
0R
0I
0S
#730000
1$
14
1R
1I
1S
#740000
0$
04
0R
0I
0S
#750000
1$
14
1R
1I
1S
#760000
0$
04
0R
0I
0S
#770000
1$
14
1R
1I
1S
#780000
0$
04
0R
0I
0S
#790000
1$
14
1R
1I
1S
#800000
0$
04
0R
0I
0S
#810000
1$
14
1R
1I
1S
#820000
0$
04
0R
0I
0S
#830000
1$
14
1R
1I
1S
#840000
0$
04
0R
0I
0S
#850000
1$
14
1R
1I
1S
#860000
0$
04
0R
0I
0S
#870000
1$
14
1R
1I
1S
#880000
0$
04
0R
0I
0S
#890000
1$
14
1R
1I
1S
#900000
0$
04
0R
0I
0S
#910000
1$
14
1R
1I
1S
#920000
0$
04
0R
0I
0S
#930000
1$
14
1R
1I
1S
#940000
0$
04
0R
0I
0S
#950000
1$
14
1R
1I
1S
#960000
0$
04
0R
0I
0S
#970000
1$
14
1R
1I
1S
#980000
0$
04
0R
0I
0S
#990000
1$
14
1R
1I
1S
