Projetos_digitais/Lab3Copia/simulation/qsim/Lab3.msim.vcd
$comment
	File created using the following command:
		vcd file Lab3.msim.vcd -direction
$end
$date
	Mon Sep 26 18:55:57 2022
$end
$version
	ModelSim Version 10.5b
$end
$timescale
	1ps
$end

$scope module Lab3_vlg_vec_tst $end
$var reg 1 ! Clear $end
$var reg 1 " Clock $end
$var reg 1 # D0 $end
$var wire 1 $ o0 $end
$var wire 1 % o1 $end
$var wire 1 & o2 $end
$var wire 1 ' o3 $end
$var wire 1 ( o4 $end
$var wire 1 ) o5 $end
$var wire 1 * o6 $end
$var wire 1 + o7 $end

$scope module i1 $end
$var wire 1 , gnd $end
$var wire 1 - vcc $end
$var wire 1 . unknown $end
$var tri1 1 / devclrn $end
$var tri1 1 0 devpor $end
$var tri1 1 1 devoe $end
$var wire 1 2 ~QUARTUS_CREATED_GND~I_combout $end
$var wire 1 3 ~QUARTUS_CREATED_UNVM~~busy $end
$var wire 1 4 ~QUARTUS_CREATED_ADC1~~eoc $end
$var wire 1 5 ~QUARTUS_CREATED_ADC2~~eoc $end
$var wire 1 6 o0~output_o $end
$var wire 1 7 o1~output_o $end
$var wire 1 8 o2~output_o $end
$var wire 1 9 o3~output_o $end
$var wire 1 : o4~output_o $end
$var wire 1 ; o5~output_o $end
$var wire 1 < o6~output_o $end
$var wire 1 = o7~output_o $end
$var wire 1 > Clock~input_o $end
$var wire 1 ? D0~input_o $end
$var wire 1 @ inst|inst~feeder_combout $end
$var wire 1 A Clear~input_o $end
$var wire 1 B inst|inst~q $end
$var wire 1 C inst|inst1~feeder_combout $end
$var wire 1 D inst|inst1~q $end
$var wire 1 E inst|inst2~feeder_combout $end
$var wire 1 F inst|inst2~q $end
$var wire 1 G inst|inst3~feeder_combout $end
$var wire 1 H inst|inst3~q $end
$var wire 1 I inst|inst4~feeder_combout $end
$var wire 1 J inst|inst4~q $end
$var wire 1 K inst|inst5~feeder_combout $end
$var wire 1 L inst|inst5~q $end
$var wire 1 M inst|inst6~feeder_combout $end
$var wire 1 N inst|inst6~q $end
$var wire 1 O inst|inst7~feeder_combout $end
$var wire 1 P inst|inst7~q $end
$upscope $end
$upscope $end
$enddefinitions $end
#0
$dumpvars
1!
0"
1#
0$
0%
0&
0'
0(
0)
0*
0+
0,
1-
x.
1/
10
11
02
z3
z4
z5
06
07
08
09
0:
0;
0<
0=
0>
1?
1@
1A
0B
0C
0D
0E
0F
0G
0H
0I
0J
0K
0L
0M
0N
0O
0P
$end
#10000
1"
1>
1B
16
1$
1C
#20000
0"
0>
#30000
1"
1>
1D
17
1%
1E
#40000
0"
0>
#50000
1"
1>
1F
18
1&
1G
#60000
0"
0>
#70000
1"
1>
1H
19
1'
1I
#80000
0"
0>
#90000
1"
1>
1J
1:
1(
1K
#100000
0"
0>
#110000
1"
1>
1L
1;
1)
1M
#120000
0"
0>
#130000
1"
1>
1N
1<
1*
1O
#140000
0"
0>
#150000
1"
1>
1P
1=
1+
#160000
0"
0>
#170000
1"
1>
#180000
0"
0>
#190000
1"
1>
#200000
0"
0>
#210000
1"
1>
#220000
0"
0>
#230000
1"
1>
#240000
0"
0>
#250000
1"
1>
#260000
0"
0>
#270000
1"
1>
#280000
0"
0>
#290000
1"
1>
#300000
0"
0>
#310000
1"
1>
#320000
0"
0>
#330000
1"
1>
#340000
0"
0>
#350000
1"
1>
#360000
0"
0>
#370000
1"
1>
#380000
0"
0>
#390000
1"
1>
#400000
0"
0>
#410000
1"
1>
#420000
0"
0>
#430000
1"
1>
#440000
0"
0>
#450000
1"
1>
#460000
0"
0>
#470000
1"
1>
#480000
0"
0>
#490000
1"
1>
#500000
0"
0>
#510000
1"
1>
#520000
0"
0>
#530000
1"
1>
#540000
0"
0>
#550000
1"
1>
#560000
0"
0>
#570000
1"
1>
#580000
0"
0>
#590000
1"
1>
#600000
0"
0>
#610000
1"
1>
#620000
0"
0>
#630000
1"
1>
#640000
0"
0>
#650000
1"
1>
#660000
0"
0>
#670000
1"
1>
#680000
0"
0>
#690000
1"
1>
#700000
0"
0>
#710000
1"
1>
#720000
0"
0>
#730000
1"
1>
#740000
0"
0>
#750000
1"
1>
#760000
0"
0>
#770000
1"
1>
#780000
0"
0>
#790000
1"
1>
#800000
0"
0>
#810000
1"
1>
#820000
0"
0>
#830000
1"
1>
#840000
0"
0>
#850000
1"
1>
#860000
0"
0>
#870000
1"
1>
#880000
0"
0>
#890000
1"
1>
#900000
0"
0>
#910000
1"
1>
#920000
0"
0>
#930000
1"
1>
#940000
0"
0>
#950000
1"
1>
#960000
0"
0>
#970000
1"
1>
#980000
0"
0>
#990000
1"
1>
