Projetos_digitais/Lab7/simulation/qsim/Lab7.msim.vcd
$comment
	File created using the following command:
		vcd file Lab7.msim.vcd -direction
$end
$date
	Sun Nov 20 14:19:20 2022
$end
$version
	ModelSim Version 10.5b
$end
$timescale
	1ps
$end

$scope module lab7_vhd_vec_tst $end
$var wire 1 ! Clock $end
$var wire 1 " ds $end
$var wire 1 # Pause $end
$var wire 1 $ Reset $end
$var wire 1 % room [7] $end
$var wire 1 & room [6] $end
$var wire 1 ' room [5] $end
$var wire 1 ( room [4] $end
$var wire 1 ) room [3] $end
$var wire 1 * room [2] $end
$var wire 1 + room [1] $end
$var wire 1 , room [0] $end
$var wire 1 - s [7] $end
$var wire 1 . s [6] $end
$var wire 1 / s [5] $end
$var wire 1 0 s [4] $end
$var wire 1 1 s [3] $end
$var wire 1 2 s [2] $end
$var wire 1 3 s [1] $end
$var wire 1 4 s [0] $end
$var wire 1 5 serial $end
$var wire 1 6 sx1 $end
$var wire 1 7 sx9 $end

$scope module i1 $end
$var wire 1 8 gnd $end
$var wire 1 9 vcc $end
$var wire 1 : unknown $end
$var wire 1 ; devoe $end
$var wire 1 < devclrn $end
$var wire 1 = devpor $end
$var wire 1 > ww_devoe $end
$var wire 1 ? ww_devclrn $end
$var wire 1 @ ww_devpor $end
$var wire 1 A ww_sx9 $end
$var wire 1 B ww_Clock $end
$var wire 1 C ww_Reset $end
$var wire 1 D ww_Pause $end
$var wire 1 E ww_sx1 $end
$var wire 1 F ww_serial $end
$var wire 1 G ww_ds $end
$var wire 1 H ww_room [7] $end
$var wire 1 I ww_room [6] $end
$var wire 1 J ww_room [5] $end
$var wire 1 K ww_room [4] $end
$var wire 1 L ww_room [3] $end
$var wire 1 M ww_room [2] $end
$var wire 1 N ww_room [1] $end
$var wire 1 O ww_room [0] $end
$var wire 1 P ww_s [7] $end
$var wire 1 Q ww_s [6] $end
$var wire 1 R ww_s [5] $end
$var wire 1 S ww_s [4] $end
$var wire 1 T ww_s [3] $end
$var wire 1 U ww_s [2] $end
$var wire 1 V ww_s [1] $end
$var wire 1 W ww_s [0] $end
$var wire 1 X \inst1|altsyncram_component|auto_generated|ram_block1a0_PORTAADDR_bus\ [7] $end
$var wire 1 Y \inst1|altsyncram_component|auto_generated|ram_block1a0_PORTAADDR_bus\ [6] $end
$var wire 1 Z \inst1|altsyncram_component|auto_generated|ram_block1a0_PORTAADDR_bus\ [5] $end
$var wire 1 [ \inst1|altsyncram_component|auto_generated|ram_block1a0_PORTAADDR_bus\ [4] $end
$var wire 1 \ \inst1|altsyncram_component|auto_generated|ram_block1a0_PORTAADDR_bus\ [3] $end
$var wire 1 ] \inst1|altsyncram_component|auto_generated|ram_block1a0_PORTAADDR_bus\ [2] $end
$var wire 1 ^ \inst1|altsyncram_component|auto_generated|ram_block1a0_PORTAADDR_bus\ [1] $end
$var wire 1 _ \inst1|altsyncram_component|auto_generated|ram_block1a0_PORTAADDR_bus\ [0] $end
$var wire 1 ` \inst1|altsyncram_component|auto_generated|ram_block1a0_PORTADATAOUT_bus\ [17] $end
$var wire 1 a \inst1|altsyncram_component|auto_generated|ram_block1a0_PORTADATAOUT_bus\ [16] $end
$var wire 1 b \inst1|altsyncram_component|auto_generated|ram_block1a0_PORTADATAOUT_bus\ [15] $end
$var wire 1 c \inst1|altsyncram_component|auto_generated|ram_block1a0_PORTADATAOUT_bus\ [14] $end
$var wire 1 d \inst1|altsyncram_component|auto_generated|ram_block1a0_PORTADATAOUT_bus\ [13] $end
$var wire 1 e \inst1|altsyncram_component|auto_generated|ram_block1a0_PORTADATAOUT_bus\ [12] $end
$var wire 1 f \inst1|altsyncram_component|auto_generated|ram_block1a0_PORTADATAOUT_bus\ [11] $end
$var wire 1 g \inst1|altsyncram_component|auto_generated|ram_block1a0_PORTADATAOUT_bus\ [10] $end
$var wire 1 h \inst1|altsyncram_component|auto_generated|ram_block1a0_PORTADATAOUT_bus\ [9] $end
$var wire 1 i \inst1|altsyncram_component|auto_generated|ram_block1a0_PORTADATAOUT_bus\ [8] $end
$var wire 1 j \inst1|altsyncram_component|auto_generated|ram_block1a0_PORTADATAOUT_bus\ [7] $end
$var wire 1 k \inst1|altsyncram_component|auto_generated|ram_block1a0_PORTADATAOUT_bus\ [6] $end
$var wire 1 l \inst1|altsyncram_component|auto_generated|ram_block1a0_PORTADATAOUT_bus\ [5] $end
$var wire 1 m \inst1|altsyncram_component|auto_generated|ram_block1a0_PORTADATAOUT_bus\ [4] $end
$var wire 1 n \inst1|altsyncram_component|auto_generated|ram_block1a0_PORTADATAOUT_bus\ [3] $end
$var wire 1 o \inst1|altsyncram_component|auto_generated|ram_block1a0_PORTADATAOUT_bus\ [2] $end
$var wire 1 p \inst1|altsyncram_component|auto_generated|ram_block1a0_PORTADATAOUT_bus\ [1] $end
$var wire 1 q \inst1|altsyncram_component|auto_generated|ram_block1a0_PORTADATAOUT_bus\ [0] $end
$var wire 1 r \~QUARTUS_CREATED_ADC1~_CHSEL_bus\ [4] $end
$var wire 1 s \~QUARTUS_CREATED_ADC1~_CHSEL_bus\ [3] $end
$var wire 1 t \~QUARTUS_CREATED_ADC1~_CHSEL_bus\ [2] $end
$var wire 1 u \~QUARTUS_CREATED_ADC1~_CHSEL_bus\ [1] $end
$var wire 1 v \~QUARTUS_CREATED_ADC1~_CHSEL_bus\ [0] $end
$var wire 1 w \~QUARTUS_CREATED_ADC2~_CHSEL_bus\ [4] $end
$var wire 1 x \~QUARTUS_CREATED_ADC2~_CHSEL_bus\ [3] $end
$var wire 1 y \~QUARTUS_CREATED_ADC2~_CHSEL_bus\ [2] $end
$var wire 1 z \~QUARTUS_CREATED_ADC2~_CHSEL_bus\ [1] $end
$var wire 1 { \~QUARTUS_CREATED_ADC2~_CHSEL_bus\ [0] $end
$var wire 1 | \inst|inst|sx8~clkctrl_INCLK_bus\ [3] $end
$var wire 1 } \inst|inst|sx8~clkctrl_INCLK_bus\ [2] $end
$var wire 1 ~ \inst|inst|sx8~clkctrl_INCLK_bus\ [1] $end
$var wire 1 !! \inst|inst|sx8~clkctrl_INCLK_bus\ [0] $end
$var wire 1 "! \inst|inst|sx1~clkctrl_INCLK_bus\ [3] $end
$var wire 1 #! \inst|inst|sx1~clkctrl_INCLK_bus\ [2] $end
$var wire 1 $! \inst|inst|sx1~clkctrl_INCLK_bus\ [1] $end
$var wire 1 %! \inst|inst|sx1~clkctrl_INCLK_bus\ [0] $end
$var wire 1 &! \Clock~inputclkctrl_INCLK_bus\ [3] $end
$var wire 1 '! \Clock~inputclkctrl_INCLK_bus\ [2] $end
$var wire 1 (! \Clock~inputclkctrl_INCLK_bus\ [1] $end
$var wire 1 )! \Clock~inputclkctrl_INCLK_bus\ [0] $end
$var wire 1 *! \Reset~inputclkctrl_INCLK_bus\ [3] $end
$var wire 1 +! \Reset~inputclkctrl_INCLK_bus\ [2] $end
$var wire 1 ,! \Reset~inputclkctrl_INCLK_bus\ [1] $end
$var wire 1 -! \Reset~inputclkctrl_INCLK_bus\ [0] $end
$var wire 1 .! \~QUARTUS_CREATED_GND~I_combout\ $end
$var wire 1 /! \~QUARTUS_CREATED_UNVM~~busy\ $end
$var wire 1 0! \~QUARTUS_CREATED_ADC1~~eoc\ $end
$var wire 1 1! \~QUARTUS_CREATED_ADC2~~eoc\ $end
$var wire 1 2! \sx9~output_o\ $end
$var wire 1 3! \sx1~output_o\ $end
$var wire 1 4! \serial~output_o\ $end
$var wire 1 5! \ds~output_o\ $end
$var wire 1 6! \room[7]~output_o\ $end
$var wire 1 7! \room[6]~output_o\ $end
$var wire 1 8! \room[5]~output_o\ $end
$var wire 1 9! \room[4]~output_o\ $end
$var wire 1 :! \room[3]~output_o\ $end
$var wire 1 ;! \room[2]~output_o\ $end
$var wire 1 <! \room[1]~output_o\ $end
$var wire 1 =! \room[0]~output_o\ $end
$var wire 1 >! \s[7]~output_o\ $end
$var wire 1 ?! \s[6]~output_o\ $end
$var wire 1 @! \s[5]~output_o\ $end
$var wire 1 A! \s[4]~output_o\ $end
$var wire 1 B! \s[3]~output_o\ $end
$var wire 1 C! \s[2]~output_o\ $end
$var wire 1 D! \s[1]~output_o\ $end
$var wire 1 E! \s[0]~output_o\ $end
$var wire 1 F! \Clock~input_o\ $end
$var wire 1 G! \Clock~inputclkctrl_outclk\ $end
$var wire 1 H! \inst|inst|estado.s13~feeder_combout\ $end
$var wire 1 I! \Reset~input_o\ $end
$var wire 1 J! \Reset~inputclkctrl_outclk\ $end
$var wire 1 K! \inst|inst|sx8~clkctrl_outclk\ $end
$var wire 1 L! \inst|inst|sx1~2_combout\ $end
$var wire 1 M! \inst|inst|sx1~1_combout\ $end
$var wire 1 N! \inst|inst|sx1~q\ $end
$var wire 1 O! \inst|inst|sx1~clkctrl_outclk\ $end
$var wire 1 P! \inst6|contagem[0]~21_combout\ $end
$var wire 1 Q! \inst6|contagem[1]~7_combout\ $end
$var wire 1 R! \inst6|contagem[1]~8\ $end
$var wire 1 S! \inst6|contagem[2]~9_combout\ $end
$var wire 1 T! \inst6|contagem[2]~10\ $end
$var wire 1 U! \inst6|contagem[3]~11_combout\ $end
$var wire 1 V! \inst6|contagem[3]~12\ $end
$var wire 1 W! \inst6|contagem[4]~13_combout\ $end
$var wire 1 X! \inst6|contagem[4]~14\ $end
$var wire 1 Y! \inst6|contagem[5]~15_combout\ $end
$var wire 1 Z! \inst6|contagem[5]~16\ $end
$var wire 1 [! \inst6|contagem[6]~17_combout\ $end
$var wire 1 \! \inst6|contagem[6]~18\ $end
$var wire 1 ]! \inst6|contagem[7]~19_combout\ $end
$var wire 1 ^! \inst7|inst|inst~feeder_combout\ $end
$var wire 1 _! \inst7|inst|inst~q\ $end
$var wire 1 `! \inst7|inst|inst10|inst2~0_combout\ $end
$var wire 1 a! \inst7|inst|inst1~q\ $end
$var wire 1 b! \inst7|inst|inst11|inst2~0_combout\ $end
$var wire 1 c! \inst7|inst|inst2~q\ $end
$var wire 1 d! \inst7|inst|inst12|inst2~0_combout\ $end
$var wire 1 e! \inst7|inst|inst3~q\ $end
$var wire 1 f! \inst7|inst|inst13|inst2~0_combout\ $end
$var wire 1 g! \inst7|inst|inst4~q\ $end
$var wire 1 h! \inst7|inst|inst14|inst2~0_combout\ $end
$var wire 1 i! \inst7|inst|inst5~q\ $end
$var wire 1 j! \inst7|inst|inst15|inst2~0_combout\ $end
$var wire 1 k! \inst7|inst|inst6~q\ $end
$var wire 1 l! \inst7|inst|inst16|inst2~0_combout\ $end
$var wire 1 m! \inst7|inst|inst7~q\ $end
$var wire 1 n! \inst3|Selector1~0_combout\ $end
$var wire 1 o! \inst3|Selector1~1_combout\ $end
$var wire 1 p! \inst3|estado.s1~q\ $end
$var wire 1 q! \inst3|estado~16_combout\ $end
$var wire 1 r! \inst3|estado.s2~q\ $end
$var wire 1 s! \inst3|Selector2~0_combout\ $end
$var wire 1 t! \inst3|estado.s3~q\ $end
$var wire 1 u! \inst3|estado~15_combout\ $end
$var wire 1 v! \inst3|estado.s4~q\ $end
$var wire 1 w! \inst3|estado~17_combout\ $end
$var wire 1 x! \inst3|estado.s5~q\ $end
$var wire 1 y! \inst3|estado~14_combout\ $end
$var wire 1 z! \inst3|estado.s6~q\ $end
$var wire 1 {! \inst3|estado~12_combout\ $end
$var wire 1 |! \inst3|estado.s7~q\ $end
$var wire 1 }! \inst3|estado~13_combout\ $end
$var wire 1 ~! \inst3|estado.s0~q\ $end
$var wire 1 !" \inst3|Selector0~0_combout\ $end
$var wire 1 "" \inst3|d_s~q\ $end
$var wire 1 #" \Pause~input_o\ $end
$var wire 1 $" \inst8~combout\ $end
$var wire 1 %" \inst4~0_combout\ $end
$var wire 1 &" \inst4~q\ $end
$var wire 1 '" \inst|inst|estado.s13~q\ $end
$var wire 1 (" \inst|inst|estado.s14~feeder_combout\ $end
$var wire 1 )" \inst|inst|estado.s14~q\ $end
$var wire 1 *" \inst|inst|estado.s15~0_combout\ $end
$var wire 1 +" \inst|inst|estado.s15~q\ $end
$var wire 1 ," \inst|inst|estado.s0~0_combout\ $end
$var wire 1 -" \inst|inst|estado.s0~q\ $end
$var wire 1 ." \inst|inst|estado.s1~feeder_combout\ $end
$var wire 1 /" \inst|inst|estado.s1~q\ $end
$var wire 1 0" \inst|inst|estado.s2~feeder_combout\ $end
$var wire 1 1" \inst|inst|estado.s2~q\ $end
$var wire 1 2" \inst|inst|estado.s3~q\ $end
$var wire 1 3" \inst|inst|estado.s4~feeder_combout\ $end
$var wire 1 4" \inst|inst|estado.s4~q\ $end
$var wire 1 5" \inst|inst|estado.s5~q\ $end
$var wire 1 6" \inst|inst|estado.s6~feeder_combout\ $end
$var wire 1 7" \inst|inst|estado.s6~q\ $end
$var wire 1 8" \inst|inst|estado.s7~feeder_combout\ $end
$var wire 1 9" \inst|inst|estado.s7~q\ $end
$var wire 1 :" \inst|inst|estado.s8~feeder_combout\ $end
$var wire 1 ;" \inst|inst|estado.s8~q\ $end
$var wire 1 <" \inst|inst|estado.s9~q\ $end
$var wire 1 =" \inst|inst|estado.s10~feeder_combout\ $end
$var wire 1 >" \inst|inst|estado.s10~q\ $end
$var wire 1 ?" \inst|inst|estado.s11~feeder_combout\ $end
$var wire 1 @" \inst|inst|estado.s11~q\ $end
$var wire 1 A" \inst|inst|estado.s12~feeder_combout\ $end
$var wire 1 B" \inst|inst|estado.s12~q\ $end
$var wire 1 C" \inst|inst|WideOr0~1_combout\ $end
$var wire 1 D" \inst|inst|WideOr0~0_combout\ $end
$var wire 1 E" \inst|inst|WideOr0~combout\ $end
$var wire 1 F" \inst|inst|sx8~q\ $end
$var wire 1 G" \inst2|inst|inst7~feeder_combout\ $end
$var wire 1 H" \inst2|inst|inst7~q\ $end
$var wire 1 I" \inst2|inst|inst6~feeder_combout\ $end
$var wire 1 J" \inst2|inst|inst6~q\ $end
$var wire 1 K" \inst2|inst|inst5~feeder_combout\ $end
$var wire 1 L" \inst2|inst|inst5~q\ $end
$var wire 1 M" \inst2|inst|inst4~feeder_combout\ $end
$var wire 1 N" \inst2|inst|inst4~q\ $end
$var wire 1 O" \inst2|inst|inst3~feeder_combout\ $end
$var wire 1 P" \inst2|inst|inst3~q\ $end
$var wire 1 Q" \inst2|inst|inst2~feeder_combout\ $end
$var wire 1 R" \inst2|inst|inst2~q\ $end
$var wire 1 S" \inst2|inst|inst1~feeder_combout\ $end
$var wire 1 T" \inst2|inst|inst1~q\ $end
$var wire 1 U" \inst2|inst|inst~feeder_combout\ $end
$var wire 1 V" \inst2|inst|inst~q\ $end
$var wire 1 W" \inst10|inst|inst7~feeder_combout\ $end
$var wire 1 X" \inst10|inst|inst7~q\ $end
$var wire 1 Y" \inst10|inst|inst6~feeder_combout\ $end
$var wire 1 Z" \inst10|inst|inst6~q\ $end
$var wire 1 [" \inst10|inst|inst5~feeder_combout\ $end
$var wire 1 \" \inst10|inst|inst5~q\ $end
$var wire 1 ]" \inst10|inst|inst4~feeder_combout\ $end
$var wire 1 ^" \inst10|inst|inst4~q\ $end
$var wire 1 _" \inst10|inst|inst3~feeder_combout\ $end
$var wire 1 `" \inst10|inst|inst3~q\ $end
$var wire 1 a" \inst10|inst|inst2~feeder_combout\ $end
$var wire 1 b" \inst10|inst|inst2~q\ $end
$var wire 1 c" \inst10|inst|inst1~feeder_combout\ $end
$var wire 1 d" \inst10|inst|inst1~q\ $end
$var wire 1 e" \inst10|inst|inst~feeder_combout\ $end
$var wire 1 f" \inst10|inst|inst~q\ $end
$var wire 1 g" \inst1|altsyncram_component|auto_generated|q_a\ [7] $end
$var wire 1 h" \inst1|altsyncram_component|auto_generated|q_a\ [6] $end
$var wire 1 i" \inst1|altsyncram_component|auto_generated|q_a\ [5] $end
$var wire 1 j" \inst1|altsyncram_component|auto_generated|q_a\ [4] $end
$var wire 1 k" \inst1|altsyncram_component|auto_generated|q_a\ [3] $end
$var wire 1 l" \inst1|altsyncram_component|auto_generated|q_a\ [2] $end
$var wire 1 m" \inst1|altsyncram_component|auto_generated|q_a\ [1] $end
$var wire 1 n" \inst1|altsyncram_component|auto_generated|q_a\ [0] $end
$var wire 1 o" \inst6|contagem\ [8] $end
$var wire 1 p" \inst6|contagem\ [7] $end
$var wire 1 q" \inst6|contagem\ [6] $end
$var wire 1 r" \inst6|contagem\ [5] $end
$var wire 1 s" \inst6|contagem\ [4] $end
$var wire 1 t" \inst6|contagem\ [3] $end
$var wire 1 u" \inst6|contagem\ [2] $end
$var wire 1 v" \inst6|contagem\ [1] $end
$var wire 1 w" \inst6|contagem\ [0] $end
$var wire 1 x" \ALT_INV_Reset~inputclkctrl_outclk\ $end
$var wire 1 y" \inst|inst|ALT_INV_sx1~clkctrl_outclk\ $end
$var wire 1 z" \inst|inst|ALT_INV_sx8~clkctrl_outclk\ $end
$var wire 1 {" \ALT_INV_Reset~input_o\ $end
$var wire 1 |" \ALT_INV_inst4~q\ $end
$var wire 1 }" \inst|inst|ALT_INV_sx8~q\ $end
$upscope $end
$upscope $end
$enddefinitions $end
#0
$dumpvars
0!
0"
0#
1$
05
06
17
08
19
x:
1;
1<
1=
1>
1?
1@
1A
0B
1C
0D
0E
0F
0G
0.!
z/!
z0!
z1!
12!
03!
04!
05!
06!
07!
08!
09!
0:!
0;!
0<!
0=!
0>!
0?!
0@!
0A!
0B!
0C!
0D!
0E!
0F!
0G!
0H!
1I!
1J!
0K!
0L!
0M!
0N!
0O!
1P!
0Q!
0R!
0S!
1T!
0U!
0V!
0W!
1X!
0Y!
0Z!
0[!
1\!
0]!
0^!
0_!
0`!
0a!
0b!
0c!
0d!
0e!
0f!
0g!
0h!
0i!
0j!
0k!
0l!
0m!
1n!
1o!
0p!
0q!
0r!
0s!
0t!
0u!
0v!
0w!
0x!
0y!
0z!
0{!
0|!
1}!
0~!
0!"
0""
0#"
0$"
1%"
0&"
0'"
0("
0)"
1*"
0+"
1,"
0-"
0."
0/"
00"
01"
02"
03"
04"
05"
06"
07"
08"
09"
0:"
0;"
0<"
0="
0>"
0?"
0@"
0A"
0B"
0C"
0D"
1E"
0F"
0G"
0H"
0I"
0J"
0K"
0L"
0M"
0N"
0O"
0P"
0Q"
0R"
0S"
0T"
0U"
0V"
0W"
0X"
0Y"
0Z"
0["
0\"
0]"
0^"
0_"
0`"
0a"
0b"
0c"
0d"
0e"
0f"
0x"
1y"
1z"
0{"
1|"
1}"
0H
0I
0J
0K
0L
0M
0N
0O
0P
0Q
0R
0S
0T
0U
0V
0W
0`
0a
0b
0c
0d
0e
0f
0g
0h
0i
0j
0k
0l
0m
0n
0o
0p
0q
0g"
0h"
0i"
0j"
0k"
0l"
0m"
0n"
xo"
0p"
0q"
0r"
0s"
0t"
0u"
0v"
0w"
1&!
1'!
1(!
0)!
1*!
1+!
1,!
1-!
1|
1}
1~
0!!
1"!
1#!
1$!
0%!
0r
0s
0t
0u
0v
0w
0x
0y
0z
0{
0%
0&
0'
0(
0)
0*
0+
0,
0-
0.
0/
00
01
02
03
04
0X
0Y
0Z
0[
0\
0]
0^
0_
$end
#1000
1!
1B
1F!
1)!
1G!
#2000
0!
0B
0F!
0)!
0G!
#3000
1!
1B
1F!
1)!
1G!
#4000
0!
0B
0F!
0)!
0G!
#5000
1!
1B
1F!
1)!
1G!
#6000
0!
0B
0F!
0)!
0G!
#7000
1!
1B
1F!
1)!
1G!
#8000
0!
0B
0F!
0)!
0G!
#9000
1!
1B
1F!
1)!
1G!
#10000
0!
0B
0F!
0)!
0G!
#11000
1!
1B
1F!
1)!
1G!
#12000
0!
0B
0F!
0)!
0G!
#13000
1!
1B
1F!
1)!
1G!
#14000
0!
0B
0F!
0)!
0G!
#15000
1!
1B
1F!
1)!
1G!
#16000
0!
0B
0F!
0)!
0G!
#17000
1!
1B
1F!
1)!
1G!
#18000
0!
0B
0F!
0)!
0G!
#19000
1!
1B
1F!
1)!
1G!
#20000
0!
0$
0B
0C
0I!
0F!
1{"
0-!
0)!
1M!
0G!
0J!
1x"
#21000
1!
1B
1F!
1)!
1G!
1+"
1-"
1F"
0}"
1!!
1."
1C"
0,"
02!
0E"
0A
1K!
07
0z"
#22000
0!
0B
0F!
0)!
0G!
#23000
1!
1B
1F!
1)!
1G!
0-"
1/"
0F"
1}"
0!!
10"
0."
0C"
12!
1E"
1A
0K!
17
1z"
1p!
1~!
#24000
0!
0B
0F!
0)!
0G!
#25000
1!
1B
1F!
1)!
1G!
0/"
11"
1F"
0}"
1!!
1D"
00"
02!
0E"
0A
1K!
07
0z"
#26000
0!
0B
0F!
0)!
0G!
#27000
1!
1B
1F!
1)!
1G!
01"
12"
0F"
1}"
0!!
13"
0D"
12!
1E"
1A
0K!
17
1z"
#28000
0!
0B
0F!
0)!
0G!
#29000
1!
1B
1F!
1)!
1G!
02"
14"
1F"
0}"
1!!
1D"
03"
02!
0E"
0A
1K!
07
0z"
#30000
0!
0B
0F!
0)!
0G!
#31000
1!
1B
1F!
1)!
1G!
04"
15"
0F"
1}"
0!!
16"
0D"
12!
1E"
1A
0K!
17
1z"
#32000
0!
0B
0F!
0)!
0G!
#33000
1!
1B
1F!
1)!
1G!
05"
17"
1F"
0}"
1!!
18"
1D"
06"
02!
0E"
0A
1K!
07
0z"
#34000
0!
0B
0F!
0)!
0G!
#35000
1!
1B
1F!
1)!
1G!
07"
19"
0F"
1}"
0!!
1:"
08"
0D"
12!
1E"
1A
0K!
17
1z"
#36000
0!
0B
0F!
0)!
0G!
#37000
1!
1B
1F!
1)!
1G!
09"
1;"
1F"
0}"
1!!
1D"
0:"
02!
0E"
0A
1K!
07
0z"
#38000
0!
0B
0F!
0)!
0G!
#39000
1!
1B
1F!
1)!
1G!
0;"
1<"
0F"
1}"
0!!
1="
0D"
12!
1E"
1A
0K!
17
1z"
#40000
0!
0B
0F!
0)!
0G!
#41000
1!
1B
1F!
1)!
1G!
0<"
1>"
1F"
0}"
1!!
1?"
0E"
0="
02!
0A
1K!
07
0z"
#42000
0!
0B
0F!
0)!
0G!
#43000
1!
1B
1F!
1)!
1G!
0>"
1@"
0F"
1}"
0!!
1A"
0?"
1E"
12!
1A
0K!
17
1z"
#44000
0!
0B
0F!
0)!
0G!
#45000
1!
1B
1F!
1)!
1G!
0@"
1B"
1F"
0}"
1!!
1H!
0E"
0A"
02!
0A
1K!
07
0z"
#46000
0!
0B
0F!
0)!
0G!
#47000
1!
1B
1F!
1)!
1G!
1'"
0B"
0F"
1}"
0!!
0H!
1E"
1L!
1("
12!
1A
0K!
17
1z"
#48000
0!
0B
0F!
0)!
0G!
#49000
1!
1B
1F!
1)!
1G!
1N!
0'"
1)"
1F"
0}"
1%!
1!!
13!
0*"
1C"
0("
02!
1E
0E"
0A
16
1K!
1O!
07
0y"
0z"
1w"
1_
0P!
1Q!
1e"
#49500
1q
1p
1o
1n
1m
1l
1k
1j
1n"
1m"
1l"
1k"
1j"
1i"
1h"
1g"
1l!
1G"
1j!
1I"
1h!
1K"
1f!
1M"
1d!
1O"
1b!
1Q"
1`!
1S"
1^!
1U"
#50000
0!
0B
0F!
0)!
0G!
#51000
1!
1B
1F!
1)!
1G!
0)"
0+"
0F"
1}"
0!!
1,"
0L!
1*"
0C"
12!
1E"
1A
0K!
17
1z"
1_!
1a!
1c!
1e!
1g!
1i!
1k!
1m!
14!
0o!
1q!
1F
15
#52000
0!
0B
0F!
0)!
0G!
#53000
1!
1B
1F!
1)!
1G!
0N!
1+"
1-"
1F"
0}"
0%!
1!!
03!
1."
1C"
0,"
02!
0E
0E"
0A
06
1K!
0O!
07
1y"
0z"
1H"
1J"
1L"
1N"
1P"
1R"
1T"
1V"
1f"
1E!
1=!
1<!
1;!
1:!
19!
18!
17!
16!
1W
1O
1N
1M
1L
1K
1J
1I
1H
14
1,
1+
1*
1)
1(
1'
1&
1%
#54000
0!
0B
0F!
0)!
0G!
#55000
1!
1B
1F!
1)!
1G!
0-"
1/"
0F"
1}"
0!!
10"
0."
0C"
12!
1E"
1A
0K!
17
1z"
0p!
1r!
0n!
0q!
0}!
#56000
0!
0B
0F!
0)!
0G!
#57000
1!
1B
1F!
1)!
1G!
0/"
11"
1F"
0}"
1!!
1D"
00"
02!
0E"
0A
1K!
07
0z"
#58000
0!
0B
0F!
0)!
0G!
#59000
1!
1B
1F!
1)!
1G!
01"
12"
0F"
1}"
0!!
13"
0D"
12!
1E"
1A
0K!
17
1z"
0r!
0~!
1n!
#60000
0!
0B
0F!
0)!
0G!
#61000
1!
1B
1F!
1)!
1G!
02"
14"
1F"
0}"
1!!
1D"
03"
02!
0E"
0A
1K!
07
0z"
#62000
0!
0B
0F!
0)!
0G!
#63000
1!
1B
1F!
1)!
1G!
04"
15"
0F"
1}"
0!!
16"
0D"
12!
1E"
1A
0K!
17
1z"
#64000
0!
0B
0F!
0)!
0G!
#65000
1!
1B
1F!
1)!
1G!
05"
17"
1F"
0}"
1!!
18"
1D"
06"
02!
0E"
0A
1K!
07
0z"
#66000
0!
0B
0F!
0)!
0G!
#67000
1!
1B
1F!
1)!
1G!
07"
19"
0F"
1}"
0!!
1:"
08"
0D"
12!
1E"
1A
0K!
17
1z"
#68000
0!
0B
0F!
0)!
0G!
#69000
1!
1B
1F!
1)!
1G!
09"
1;"
1F"
0}"
1!!
1D"
0:"
02!
0E"
0A
1K!
07
0z"
#70000
0!
0B
0F!
0)!
0G!
#71000
1!
1B
1F!
1)!
1G!
0;"
1<"
0F"
1}"
0!!
1="
0D"
12!
1E"
1A
0K!
17
1z"
#72000
0!
0B
0F!
0)!
0G!
#73000
1!
1B
1F!
1)!
1G!
0<"
1>"
1F"
0}"
1!!
1?"
0E"
0="
02!
0A
1K!
07
0z"
#74000
0!
0B
0F!
0)!
0G!
#75000
1!
1B
1F!
1)!
1G!
0>"
1@"
0F"
1}"
0!!
1A"
0?"
1E"
12!
1A
0K!
17
1z"
#76000
0!
0B
0F!
0)!
0G!
#77000
1!
1B
1F!
1)!
1G!
0@"
1B"
1F"
0}"
1!!
1H!
0E"
0A"
02!
0A
1K!
07
0z"
#78000
0!
0B
0F!
0)!
0G!
#79000
1!
1B
1F!
1)!
1G!
1'"
0B"
0F"
1}"
0!!
0H!
1E"
1L!
1("
12!
1A
0K!
17
1z"
#80000
0!
0B
0F!
0)!
0G!
#81000
1!
1B
1F!
1)!
1G!
1N!
0'"
1)"
1F"
0}"
1%!
1!!
13!
0*"
1C"
0("
02!
1E
0E"
0A
16
1K!
1O!
07
0y"
0z"
0w"
1v"
0_
1^
1c"
1P!
0e"
#81500
0l
0k
0j
0i"
0h"
0g"
0l!
0G"
0j!
0I"
0h!
0K"
#82000
0!
0B
0F!
0)!
0G!
#83000
1!
1B
1F!
1)!
1G!
0)"
0+"
0F"
1}"
0!!
1,"
0L!
1*"
0C"
12!
1E"
1A
0K!
17
1z"
0i!
0k!
0m!
04!
1o!
1}!
0F
05
#84000
0!
0B
0F!
0)!
0G!
#85000
1!
1B
1F!
1)!
1G!
0N!
1+"
1-"
1F"
0}"
0%!
1!!
03!
1."
1C"
0,"
1h!
02!
0E
0E"
0A
06
1K!
0O!
07
1y"
0z"
0H"
0J"
0L"
1d"
0f"
0E!
1D!
08!
07!
06!
0W
1V
0J
0I
0H
04
13
0'
0&
0%
#86000
0!
0B
0F!
0)!
0G!
#87000
1!
1B
1F!
1)!
1G!
0-"
1/"
0F"
1}"
0!!
10"
0."
0C"
12!
1E"
1A
0K!
17
1z"
1i!
1p!
1~!
1j!
#88000
0!
0B
0F!
0)!
0G!
#89000
1!
1B
1F!
1)!
1G!
0/"
11"
1F"
0}"
1!!
1D"
00"
02!
0E"
0A
1K!
07
0z"
#90000
0!
0B
0F!
0)!
0G!
#91000
1!
1B
1F!
1)!
1G!
01"
12"
0F"
1}"
0!!
13"
0D"
12!
1E"
1A
0K!
17
1z"
1k!
1l!
#92000
0!
0B
0F!
0)!
0G!
#93000
1!
1B
1F!
1)!
1G!
02"
14"
1F"
0}"
1!!
1D"
03"
02!
0E"
0A
1K!
07
0z"
#94000
0!
0B
0F!
0)!
0G!
#95000
1!
1B
1F!
1)!
1G!
04"
15"
0F"
1}"
0!!
16"
0D"
12!
1E"
1A
0K!
17
1z"
1m!
14!
0o!
1q!
1F
15
#96000
0!
0B
0F!
0)!
0G!
#97000
1!
1B
1F!
1)!
1G!
05"
17"
1F"
0}"
1!!
18"
1D"
06"
02!
0E"
0A
1K!
07
0z"
#98000
0!
0B
0F!
0)!
0G!
#99000
1!
1B
1F!
1)!
1G!
07"
19"
0F"
1}"
0!!
1:"
08"
0D"
12!
1E"
1A
0K!
17
1z"
0p!
1r!
0n!
0q!
0}!
#100000
0!
0B
0F!
0)!
0G!
#101000
1!
1B
1F!
1)!
1G!
09"
1;"
1F"
0}"
1!!
1D"
0:"
02!
0E"
0A
1K!
07
0z"
#102000
0!
0B
0F!
0)!
0G!
#103000
1!
1B
1F!
1)!
1G!
0;"
1<"
0F"
1}"
0!!
1="
0D"
12!
1E"
1A
0K!
17
1z"
0r!
0~!
1n!
#104000
0!
0B
0F!
0)!
0G!
#105000
1!
1B
1F!
1)!
1G!
0<"
1>"
1F"
0}"
1!!
1?"
0E"
0="
02!
0A
1K!
07
0z"
#106000
0!
0B
0F!
0)!
0G!
#107000
1!
1B
1F!
1)!
1G!
0>"
1@"
0F"
1}"
0!!
1A"
0?"
1E"
12!
1A
0K!
17
1z"
#108000
0!
0B
0F!
0)!
0G!
#109000
1!
1B
1F!
1)!
1G!
0@"
1B"
1F"
0}"
1!!
1H!
0E"
0A"
02!
0A
1K!
07
0z"
#110000
0!
0B
0F!
0)!
0G!
#111000
1!
1B
1F!
1)!
1G!
1'"
0B"
0F"
1}"
0!!
0H!
1E"
1L!
1("
12!
1A
0K!
17
1z"
