Projetos_digitais/Labs/simulation/qsim/Lab1.msim.vcd
$comment
	File created using the following command:
		vcd file Lab1.msim.vcd -direction
$end
$date
	Mon Sep 05 18:44:43 2022
$end
$version
	ModelSim Version 10.5b
$end
$timescale
	1ps
$end

$scope module Lab1_vlg_vec_tst $end
$var reg 1 ! A0 $end
$var reg 1 " A1 $end
$var reg 1 # A2 $end
$var reg 1 $ A3 $end
$var reg 1 % B0 $end
$var reg 1 & B1 $end
$var reg 1 ' B2 $end
$var reg 1 ( B3 $end
$var reg 1 ) Ci $end
$var wire 1 * AFa $end
$var wire 1 + AFb $end
$var wire 1 , AFc $end
$var wire 1 - AFd $end
$var wire 1 . AFe $end
$var wire 1 / AFf $end
$var wire 1 0 AFg $end
$var wire 1 1 BFa $end
$var wire 1 2 BFb $end
$var wire 1 3 BFc $end
$var wire 1 4 BFd $end
$var wire 1 5 BFe $end
$var wire 1 6 BFf $end
$var wire 1 7 BFg $end
$var wire 1 8 S0Fa $end
$var wire 1 9 S0Fb $end
$var wire 1 : S0Fc $end
$var wire 1 ; S0Fd $end
$var wire 1 < S0Fe $end
$var wire 1 = S0Ff $end
$var wire 1 > S0Fg $end
$var wire 1 ? S1Fa $end
$var wire 1 @ S1Fb $end
$var wire 1 A S1Fc $end
$var wire 1 B S1Fd $end
$var wire 1 C S1Fe $end
$var wire 1 D S1Ff $end
$var wire 1 E S1Fg $end

$scope module i1 $end
$var wire 1 F gnd $end
$var wire 1 G vcc $end
$var wire 1 H unknown $end
$var tri1 1 I devclrn $end
$var tri1 1 J devpor $end
$var tri1 1 K devoe $end
$var wire 1 L ~QUARTUS_CREATED_GND~I_combout $end
$var wire 1 M ~QUARTUS_CREATED_UNVM~~busy $end
$var wire 1 N ~QUARTUS_CREATED_ADC1~~eoc $end
$var wire 1 O ~QUARTUS_CREATED_ADC2~~eoc $end
$var wire 1 P AFa~output_o $end
$var wire 1 Q AFb~output_o $end
$var wire 1 R AFc~output_o $end
$var wire 1 S AFd~output_o $end
$var wire 1 T AFe~output_o $end
$var wire 1 U AFf~output_o $end
$var wire 1 V AFg~output_o $end
$var wire 1 W BFa~output_o $end
$var wire 1 X BFb~output_o $end
$var wire 1 Y BFc~output_o $end
$var wire 1 Z BFd~output_o $end
$var wire 1 [ BFe~output_o $end
$var wire 1 \ BFf~output_o $end
$var wire 1 ] BFg~output_o $end
$var wire 1 ^ S0Fa~output_o $end
$var wire 1 _ S0Fb~output_o $end
$var wire 1 ` S0Fc~output_o $end
$var wire 1 a S0Fd~output_o $end
$var wire 1 b S0Fe~output_o $end
$var wire 1 c S0Ff~output_o $end
$var wire 1 d S0Fg~output_o $end
$var wire 1 e S1Fa~output_o $end
$var wire 1 f S1Fb~output_o $end
$var wire 1 g S1Fc~output_o $end
$var wire 1 h S1Fd~output_o $end
$var wire 1 i S1Fe~output_o $end
$var wire 1 j S1Ff~output_o $end
$var wire 1 k S1Fg~output_o $end
$var wire 1 l A1~input_o $end
$var wire 1 m A3~input_o $end
$var wire 1 n A0~input_o $end
$var wire 1 o A2~input_o $end
$var wire 1 p inst9|inst10~0_combout $end
$var wire 1 q inst9|inst51|inst3~0_combout $end
$var wire 1 r inst9|inst52|inst3~0_combout $end
$var wire 1 s inst9|inst53|inst3~0_combout $end
$var wire 1 t inst9|inst38~0_combout $end
$var wire 1 u inst9|inst54|inst3~0_combout $end
$var wire 1 v inst9|inst55|inst3~0_combout $end
$var wire 1 w B2~input_o $end
$var wire 1 x B1~input_o $end
$var wire 1 y B0~input_o $end
$var wire 1 z B3~input_o $end
$var wire 1 { inst10|inst10~0_combout $end
$var wire 1 | inst10|inst51|inst3~0_combout $end
$var wire 1 } inst10|inst52|inst3~0_combout $end
$var wire 1 ~ inst10|inst53|inst3~0_combout $end
$var wire 1 !! inst10|inst38~0_combout $end
$var wire 1 "! inst10|inst54|inst3~0_combout $end
$var wire 1 #! inst10|inst55|inst3~0_combout $end
$var wire 1 $! Ci~input_o $end
$var wire 1 %! inst|inst7~combout $end
$var wire 1 &! inst|inst|inst~0_combout $end
$var wire 1 '! inst|inst2|inst2~1_cout $end
$var wire 1 (! inst|inst2|inst2~3 $end
$var wire 1 )! inst|inst2|inst2~4_combout $end
$var wire 1 *! inst|inst2|inst2~2_combout $end
$var wire 1 +! inst|inst|inst2~0_combout $end
$var wire 1 ,! inst|inst8~combout $end
$var wire 1 -! inst|inst2|inst2~5 $end
$var wire 1 .! inst|inst2|inst2~6_combout $end
$var wire 1 /! inst11|inst10~0_combout $end
$var wire 1 0! inst11|inst51|inst3~0_combout $end
$var wire 1 1! inst11|inst52|inst3~combout $end
$var wire 1 2! inst11|inst53|inst3~0_combout $end
$var wire 1 3! inst11|inst38~0_combout $end
$var wire 1 4! inst11|inst54|inst3~0_combout $end
$var wire 1 5! inst11|inst55|inst3~0_combout $end
$var wire 1 6! inst|inst2|inst2~7 $end
$var wire 1 7! inst|inst2|inst2~8_combout $end
$upscope $end
$upscope $end
$enddefinitions $end
#0
$dumpvars
0!
0"
0#
0$
0%
0&
0'
0(
1)
0*
0+
0,
0-
0.
0/
10
01
02
03
04
05
06
17
08
09
0:
0;
0<
0=
1>
1?
0@
0A
1B
1C
1D
1E
0F
1G
xH
1I
1J
1K
0L
zM
zN
zO
0P
0Q
0R
0S
0T
0U
1V
0W
0X
0Y
0Z
0[
0\
1]
0^
0_
0`
0a
0b
0c
1d
1e
0f
0g
1h
1i
1j
1k
0l
0m
0n
0o
1p
1q
1r
1s
1t
1u
0v
0w
0x
0y
0z
1{
1|
1}
1~
1!!
1"!
0#!
1$!
1%!
1&!
1'!
0(!
0)!
0*!
0+!
1,!
1-!
0.!
1/!
10!
11!
12!
13!
14!
05!
06!
17!
$end
#10000
1!
1n
1+!
0u
0t
0s
0p
1P
1S
1T
1U
04!
03!
02!
0/!
1/
1.
1-
1*
1^
1a
1b
1c
1=
1<
1;
18
#20000
1"
0!
0n
1l
0+!
1v
1t
1s
0r
1p
1*!
0P
1R
0S
0T
0V
15!
13!
12!
01!
1/!
00
0.
0-
1,
0*
0^
1`
0a
0b
0d
0>
0<
0;
1:
08
#30000
1!
1n
1+!
0t
1r
0R
1T
03!
11!
1.
0,
0`
1b
1<
0:
#40000
1#
0"
0!
0n
0l
1o
0+!
1u
0s
0p
0*!
1)!
1P
1S
0U
14!
02!
0/!
0/
1-
1*
1^
1a
0c
0=
1;
18
#50000
1!
1n
1+!
1s
0q
1p
0P
1Q
0S
12!
00!
1/!
0-
1+
0*
0^
1_
0a
0;
19
08
#60000
1"
0!
0n
1l
0+!
1t
1*!
0T
13!
0.
0b
0<
#70000
1!
1n
1+!
0v
0u
0t
0s
1q
0Q
1S
1T
1U
1V
05!
04!
03!
02!
10!
10
1/
1.
1-
0+
0_
1a
1b
1c
1d
1>
1=
1<
1;
09
#80000
1$
0#
0"
0!
0n
0l
0o
1m
0+!
1v
1u
1t
1s
0*!
0)!
1.!
0S
0T
0U
0V
15!
14!
13!
12!
00
0/
0.
0-
0a
0b
0c
0d
0>
0=
0<
0;
#90000
1!
1n
1+!
0t
1T
03!
1.
1b
1<
#100000
1"
0!
0n
1l
0+!
1t
0s
1*!
1S
0T
13!
02!
0.
1-
1a
0b
0<
1;
#110000
1!
1n
1+!
1s
0q
0p
1P
1Q
0S
12!
00!
0/!
0-
1+
1*
1^
1_
0a
0;
19
18
#120000
1#
0"
0!
0n
0l
1o
0+!
0v
0r
1p
0*!
1)!
0P
1R
1V
05!
01!
1/!
10
1,
0*
0^
1`
1d
1>
1:
08
#130000
1!
1n
1+!
1v
0u
1r
1q
0p
1P
0Q
0R
1U
0V
15!
04!
11!
10!
0/!
00
1/
0,
0+
1*
1^
0_
0`
1c
0d
0>
1=
0:
09
18
#140000
1"
0!
0n
1l
0+!
1u
0r
0q
1p
1*!
0P
1Q
1R
0U
14!
01!
00!
1/!
0/
1,
1+
0*
0^
1_
1`
0c
0=
1:
19
08
#150000
1!
1n
1+!
0s
1S
02!
1-
1a
1;
#160000
1%
0$
0#
0"
0!
0n
0l
0o
0m
1y
0&!
0v
1s
1r
1q
0*!
0)!
0.!
0"!
0!!
0~
0{
1W
1Z
1[
1\
0Q
0R
0S
1V
1(!
1*!
05!
04!
03!
11!
10!
0/!
10
0-
0,
0+
16
15
14
11
1^
0_
0`
1b
1c
1d
0-!
1)!
15!
12!
1/!
1>
1=
1<
0:
09
18
0^
0a
0d
16!
1.!
05!
02!
0>
0;
08
1a
1d
15!
14!
13!
01!
00!
1>
1;
07!
0e
0h
0i
0j
1_
1`
0b
0c
0d
0>
0=
0<
1:
19
0D
0C
0B
0?
#170000
1!
1n
0+!
1&!
0u
0t
0s
0p
1P
1S
1T
1U
12!
0(!
0*!
1/
1.
1-
1*
0a
1-!
0)!
05!
0;
1d
06!
0.!
15!
11!
10!
1>
0_
0`
0d
05!
0>
0:
09
17!
1e
1h
1i
1j
1d
1>
1D
1C
1B
1?
#180000
1"
0!
0n
1l
1+!
0&!
1v
1t
1s
0r
1p
1*!
0P
1R
0S
0T
0V
15!
04!
03!
0*!
00
0.
0-
1,
0*
1b
1c
0d
05!
02!
0/!
0>
1=
1<
1^
1a
1d
1>
1;
18
#190000
1!
1n
0+!
1&!
0t
1r
0R
1T
14!
13!
12!
1/!
1*!
1.
0,
0^
0a
0b
0c
15!
04!
01!
0=
0<
0;
08
1`
1c
0d
0>
1=
1:
#200000
1#
0"
0!
0n
0l
1o
1+!
0&!
1u
0s
0p
0*!
1)!
1P
1S
0U
14!
03!
11!
00!
1(!
1*!
0/
1-
1*
1_
0`
1b
0c
0)!
05!
04!
02!
10!
0=
1<
0:
19
0_
1a
1c
1d
15!
12!
1>
1=
1;
09
0a
0d
0>
0;
#210000
1!
1n
0+!
1&!
1s
0q
1p
0P
1Q
0S
13!
01!
0(!
0*!
0-
1+
0*
1`
0b
1)!
05!
14!
11!
0<
1:
0`
0c
1d
15!
03!
02!
0/!
1>
0=
0:
1^
1a
1b
0d
0>
1<
1;
18
#220000
1"
0!
0n
1l
1+!
0&!
1t
1*!
0T
05!
04!
1/!
0*!
0.
0^
1c
1d
15!
14!
12!
00!
1>
1=
08
1_
0a
0c
0d
0>
0=
0;
19
#230000
1!
1n
0+!
1&!
0v
0u
0t
0s
1q
0Q
1S
1T
1U
1V
02!
10!
0/!
1*!
10
1/
1.
1-
0+
1^
0_
1a
13!
12!
00!
1/!
1;
09
18
0^
1_
0a
0b
0<
0;
19
08
#240000
1$
0#
0"
0!
0n
0l
0o
1m
1+!
0&!
1v
1u
1t
1s
0*!
0)!
1.!
0S
0T
0U
0V
03!
10!
1(!
1*!
00
0/
0.
0-
0_
1b
0-!
1)!
13!
00!
0/!
1<
09
1^
1_
0b
0.!
02!
01!
1/!
0<
19
18
0^
1`
1a
05!
04!
03!
11!
10!
1;
1:
08
0_
0`
1b
1c
1d
1>
1=
1<
0:
09
#250000
1!
1n
0+!
1&!
0t
1T
15!
14!
13!
12!
00!
0(!
0*!
1.
1_
0a
0b
0c
0d
1-!
0)!
03!
02!
10!
0/!
0>
0=
0<
0;
19
1^
0_
1a
1b
1.!
05!
13!
12!
1/!
1<
1;
09
18
0^
0a
0b
1d
15!
1>
0<
0;
08
0d
0>
#260000
1"
0!
0n
1l
1+!
0&!
1t
0s
1*!
1S
0T
00!
0/!
0*!
0.
1-
1^
1_
03!
10!
1/!
19
18
0^
0_
1b
1<
09
08
#270000
1!
1n
0+!
1&!
1s
0q
0p
1P
1Q
0S
13!
1*!
0-
1+
1*
0b
02!
0<
1a
1;
#280000
1#
0"
0!
0n
0l
1o
1+!
0&!
0v
0r
1p
0*!
1)!
0P
1R
1V
04!
12!
0/!
1(!
1*!
10
1,
0*
1^
0a
1c
0)!
14!
02!
01!
00!
1/!
1=
0;
18
0^
1_
1`
1a
0c
12!
11!
0/!
0=
1;
1:
19
08
1^
0`
0a
0;
0:
18
#290000
1!
1n
0+!
1&!
1v
0u
1r
1q
0p
1P
0Q
0R
1U
0V
02!
10!
1/!
0(!
0*!
00
1/
0,
0+
1*
0^
0_
1a
1)!
12!
1;
09
08
0a
05!
01!
00!
0;
1_
1`
1d
1>
1:
19
#300000
1"
0!
0n
1l
1+!
0&!
1u
0r
0q
1p
1*!
0P
1Q
1R
0U
15!
02!
0*!
0/
1,
1+
0*
1a
0d
04!
12!
11!
10!
0/!
0>
1;
1^
0_
0`
0a
1c
1=
0;
0:
09
18
#310000
1!
1n
0+!
1&!
0s
1S
05!
14!
01!
00!
1/!
1*!
1-
0^
1_
1`
0c
1d
15!
1>
0=
1:
19
08
0d
0>
#320000
1&
0%
0$
0#
0"
0!
0n
0l
0o
0m
0y
1x
0v
1s
1r
1q
0*!
0)!
0.!
1#!
1!!
1~
0}
1{
0'!
0W
1Y
0Z
0[
0]
0Q
0R
0S
1V
05!
11!
10!
1(!
1*!
10
0-
0,
0+
07
05
04
13
01
0_
0`
1d
0-!
1)!
15!
04!
01!
1>
0:
09
1`
1c
0d
16!
1.!
14!
11!
00!
0>
1=
1:
1_
0`
0c
01!
0=
0:
19
07!
0e
0h
0i
0j
1`
1:
0D
0C
0B
0?
#330000
1!
1n
1+!
0u
0t
0s
0p
1P
1S
1T
1U
02!
1/
1.
1-
1*
1a
1;
#340000
1"
0!
0n
1l
0+!
1v
1t
1s
0r
1p
0(!
0*!
0P
1R
0S
0T
0V
05!
12!
1-!
0)!
00
0.
0-
1,
0*
0a
1d
06!
0.!
15!
11!
10!
1>
0;
0_
0`
0d
05!
0>
0:
09
17!
1e
1h
1i
1j
1d
1>
1D
1C
1B
1?
#350000
1!
1n
1+!
0t
1r
0R
1T
04!
03!
02!
0/!
1.
0,
1^
1a
1b
1c
1=
1<
1;
18
#360000
1#
0"
0!
0n
0l
1o
0+!
1u
0s
0p
1(!
1*!
1)!
1P
1S
0U
15!
14!
13!
12!
00!
1/!
0)!
0/
1-
1*
0^
1_
0a
0b
0c
0d
04!
01!
10!
0>
0=
0<
0;
19
08
0_
1`
1c
1=
1:
09
#370000
1!
1n
1+!
1s
0q
1p
0P
1Q
0S
03!
11!
0-
1+
0*
0`
1b
1<
0:
#380000
1"
0!
0n
1l
0+!
1t
0(!
0*!
0T
05!
14!
13!
1)!
0.
0b
0c
1d
15!
03!
02!
0/!
1>
0=
0<
1^
1a
1b
0d
0>
1<
1;
18
#390000
1!
1n
1+!
0v
0u
0t
0s
1q
0Q
1S
1T
1U
1V
12!
00!
1/!
10
1/
1.
1-
0+
0^
1_
0a
0;
19
08
#400000
1$
0#
0"
0!
0n
0l
0o
1m
0+!
1v
1u
1t
1s
1(!
1*!
0)!
1.!
0S
0T
0U
0V
13!
02!
10!
0-!
1)!
00
0/
0.
0-
0_
1a
0b
0.!
12!
01!
00!
0<
1;
09
1_
1`
0a
11!
0;
1:
19
0`
0:
#410000
1!
1n
1+!
0t
1T
05!
04!
03!
02!
10!
1.
0_
1a
1b
1c
1d
1>
1=
1<
1;
09
#420000
1"
0!
0n
1l
0+!
1t
0s
0(!
0*!
1S
0T
15!
14!
0/!
1-!
0)!
0.
1-
1^
0c
0d
1.!
05!
13!
12!
1/!
0>
0=
18
0^
0a
0b
1d
15!
1>
0<
0;
08
0d
0>
#430000
1!
1n
1+!
1s
0q
0p
1P
1Q
0S
03!
0-
1+
1*
1b
1<
#440000
1#
0"
0!
0n
0l
1o
0+!
0v
0r
1p
1(!
1*!
1)!
0P
1R
1V
13!
01!
00!
0)!
10
1,
0*
1_
1`
0b
02!
11!
10!
0<
1:
19
0_
0`
1a
1;
0:
09
#450000
1!
1n
1+!
1v
0u
1r
1q
0p
1P
0Q
0R
1U
0V
12!
00!
0/!
00
1/
0,
0+
1*
1^
1_
0a
0;
19
18
#460000
1"
0!
0n
1l
0+!
1u
0r
0q
1p
0(!
0*!
0P
1Q
1R
0U
10!
1/!
1)!
0/
1,
1+
0*
0^
0_
05!
01!
00!
09
08
1_
1`
1d
1>
1:
19
#470000
1!
1n
1+!
0s
1S
15!
04!
11!
10!
0/!
1-
1^
0_
0`
1c
0d
0>
1=
0:
09
18
#480000
1%
0$
0#
0"
0!
0n
0l
0o
0m
1y
0&!
0v
1s
1r
1q
1(!
1*!
0)!
0.!
0!!
1}
0Y
1[
0Q
0R
0S
1V
0*!
0-!
1)!
03!
1/!
10
0-
0,
0+
15
03
0^
1b
14!
00!
16!
1.!
1<
08
1_
0c
04!
13!
10!
0/!
0=
19
07!
0e
0h
0i
0j
1^
0_
0b
1c
1=
0<
09
18
0D
0C
0B
0?
#490000
1!
1n
0+!
1&!
0u
0t
0s
0p
1P
1S
1T
1U
05!
14!
01!
00!
1/!
1*!
1/
1.
1-
1*
0^
1_
1`
0c
1d
15!
1>
0=
1:
19
08
0d
0>
#500000
1"
0!
0n
1l
1+!
0&!
1v
1t
1s
0r
1p
0(!
0*!
0P
1R
0S
0T
0V
04!
11!
10!
0/!
1(!
1*!
1-!
0)!
00
0.
0-
1,
0*
1^
0_
0`
1c
0-!
1)!
14!
00!
06!
0.!
1=
0:
09
18
1_
0c
16!
1.!
05!
04!
03!
02!
10!
1/!
0=
19
17!
1e
1h
1i
1j
0^
0_
1a
1b
1c
1d
15!
14!
13!
01!
00!
1>
1=
1<
1;
09
08
1D
1C
1B
1?
07!
0e
0h
0i
0j
1_
1`
0b
0c
0d
0>
0=
0<
1:
19
0D
0C
0B
0?
#510000
1!
1n
0+!
1&!
0t
1r
0R
1T
12!
0(!
0*!
1.
0,
0a
1-!
0)!
05!
0;
1d
06!
0.!
15!
11!
10!
1>
0_
0`
0d
05!
0>
0:
09
17!
1e
1h
1i
1j
1d
1>
1D
1C
1B
1?
#520000
1#
0"
0!
0n
0l
1o
1+!
0&!
1u
0s
0p
1(!
1*!
1)!
1P
1S
0U
04!
03!
02!
0*!
0)!
0/
1-
1*
1a
1b
1c
0/!
1=
1<
1;
1^
18
#530000
1!
1n
0+!
1&!
1s
0q
1p
0P
1Q
0S
14!
13!
12!
1/!
1*!
0-
1+
0*
0^
0a
0b
0c
15!
04!
01!
0=
0<
0;
08
1`
1c
0d
0>
1=
1:
#540000
1"
0!
0n
1l
1+!
0&!
1t
0(!
0*!
0T
05!
03!
02!
11!
0/!
1(!
1*!
1)!
0.
1^
0`
1a
1b
1d
0)!
1/!
1>
1<
1;
0:
18
0^
15!
12!
08
0a
0d
0>
0;
#550000
1!
1n
0+!
1&!
0v
0u
0t
0s
1q
0Q
1S
1T
1U
1V
13!
01!
0(!
0*!
10
1/
1.
1-
0+
1`
0b
1)!
05!
14!
11!
0<
1:
0`
0c
1d
15!
03!
02!
0/!
1>
0=
0:
1^
1a
1b
0d
0>
1<
1;
18
#560000
1$
0#
0"
0!
0n
0l
0o
1m
1+!
0&!
1v
1u
1t
1s
1(!
1*!
0)!
1.!
0S
0T
0U
0V
13!
12!
00!
0*!
0-!
1)!
00
0/
0.
0-
1_
0a
0b
04!
10!
0.!
0<
0;
19
0_
1c
14!
03!
00!
1/!
1=
09
0^
1_
1b
0c
0=
1<
19
08
#570000
1!
1n
0+!
1&!
0t
1T
02!
10!
0/!
1*!
1.
1^
0_
1a
13!
12!
00!
1/!
1;
09
18
0^
1_
0a
0b
0<
0;
19
08
#580000
1"
0!
0n
1l
1+!
0&!
1t
0s
0(!
0*!
1S
0T
03!
1(!
1*!
1-!
0)!
0.
1-
1b
0-!
1)!
04!
10!
1.!
1<
0_
1c
0.!
14!
13!
02!
01!
00!
1=
09
1_
1`
1a
0b
0c
05!
04!
03!
11!
10!
0=
0<
1;
1:
19
0_
0`
1b
1c
1d
1>
1=
1<
0:
09
#590000
1!
1n
0+!
1&!
1s
0q
0p
1P
1Q
0S
15!
14!
13!
12!
00!
0(!
0*!
0-
1+
1*
1_
0a
0b
0c
0d
1-!
0)!
03!
02!
10!
0/!
0>
0=
0<
0;
19
1^
0_
1a
1b
1.!
05!
13!
12!
1/!
1<
1;
09
18
0^
0a
0b
1d
15!
1>
0<
0;
08
0d
0>
#600000
1#
0"
0!
0n
0l
1o
1+!
0&!
0v
0r
1p
1(!
1*!
1)!
0P
1R
1V
02!
01!
00!
0*!
0)!
10
1,
0*
1_
1`
1a
03!
12!
11!
10!
1;
1:
19
0_
0`
0a
1b
1<
0;
0:
09
#610000
1!
1n
0+!
1&!
1v
0u
1r
1q
0p
1P
0Q
0R
1U
0V
13!
1*!
00
1/
0,
0+
1*
0b
02!
0<
1a
1;
#620000
1"
0!
0n
1l
1+!
0&!
1u
0r
0q
1p
0(!
0*!
0P
1Q
1R
0U
03!
12!
1(!
1*!
1)!
0/
1,
1+
0*
0a
1b
0)!
13!
02!
01!
00!
1<
0;
1_
1`
1a
0b
12!
11!
0/!
0<
1;
1:
19
1^
0`
0a
0;
0:
18
#630000
1!
1n
0+!
1&!
0s
1S
02!
10!
1/!
0(!
0*!
1-
0^
0_
1a
1)!
12!
1;
09
08
0a
05!
01!
00!
0;
1_
1`
1d
1>
1:
19
#640000
1'
0&
0%
0$
0#
0"
0!
0n
0l
0o
0m
0y
0x
1w
0v
1s
1r
1q
1(!
1*!
0)!
0.!
1"!
0~
0{
1'!
0%!
1W
1Z
0\
0Q
0R
0S
1V
0-!
15!
04!
10!
0(!
0*!
10
0-
0,
0+
06
14
11
0_
1c
0d
16!
1.!
1)!
05!
14!
11!
0>
1=
09
0`
0c
1d
01!
00!
1>
0=
0:
07!
0e
0h
0i
0j
1_
1`
1:
19
0D
0C
0B
0?
#650000
1!
1n
1+!
0u
0t
0s
0p
1P
1S
1T
1U
15!
04!
11!
10!
0/!
1/
1.
1-
1*
1^
0_
0`
1c
0d
0>
1=
0:
09
18
#660000
1"
0!
0n
1l
0+!
1v
1t
1s
0r
1p
1*!
0P
1R
0S
0T
0V
14!
01!
00!
1/!
00
0.
0-
1,
0*
0^
1_
1`
0c
0=
1:
19
08
#670000
1!
1n
1+!
0t
1r
0R
1T
02!
1.
0,
1a
1;
#680000
1#
0"
0!
0n
0l
1o
0+!
1u
0s
0p
0*!
1-!
0)!
1P
1S
0U
12!
11!
10!
06!
0.!
0/
1-
1*
0_
0`
0a
05!
0;
0:
09
17!
1e
1h
1i
1j
1d
1>
1D
1C
1B
1?
#690000
1!
1n
1+!
1s
0q
1p
0P
1Q
0S
04!
03!
02!
0/!
0-
1+
0*
1^
1a
1b
1c
1=
1<
1;
18
#700000
1"
0!
0n
1l
0+!
1t
1*!
0T
15!
13!
12!
01!
1/!
0.
0^
1`
0a
0b
0d
0>
0<
0;
1:
08
#710000
1!
1n
1+!
0v
0u
0t
0s
1q
0Q
1S
1T
1U
1V
03!
11!
10
1/
1.
1-
0+
0`
1b
1<
0:
#720000
1$
0#
0"
0!
0n
0l
0o
1m
0+!
1v
1u
1t
1s
0*!
0-!
1)!
1.!
0S
0T
0U
0V
05!
14!
13!
01!
00!
0.!
00
0/
0.
0-
1_
1`
0b
0c
1d
15!
03!
02!
11!
10!
0/!
1>
0=
0<
1:
19
1^
0_
0`
1a
1b
0d
0>
1<
1;
0:
09
18
#730000
1!
1n
1+!
0t
1T
12!
00!
1/!
1.
0^
1_
0a
0;
19
08
#740000
1"
0!
0n
1l
0+!
1t
0s
1*!
1S
0T
13!
0.
1-
0b
0<
#750000
1!
1n
1+!
1s
0q
0p
1P
1Q
0S
05!
04!
03!
02!
10!
0-
1+
1*
0_
1a
1b
1c
1d
1>
1=
1<
1;
09
#760000
1#
0"
0!
0n
0l
1o
0+!
0v
0r
1p
0*!
1-!
0)!
0P
1R
1V
14!
13!
12!
1.!
10
1,
0*
0a
0b
0c
15!
0=
0<
0;
0d
0>
#770000
1!
1n
1+!
1v
0u
1r
1q
0p
1P
0Q
0R
1U
0V
03!
00
1/
0,
0+
1*
1b
1<
#780000
1"
0!
0n
1l
0+!
1u
0r
0q
1p
1*!
0P
1Q
1R
0U
13!
02!
0/
1,
1+
0*
1a
0b
0<
1;
#790000
1!
1n
1+!
0s
1S
12!
00!
0/!
1-
1^
1_
0a
0;
19
18
#800000
1%
0$
0#
0"
0!
0n
0l
0o
0m
1y
0&!
0v
1s
1r
1q
0*!
0-!
1)!
0.!
1~
0|
1{
0W
1X
0Z
0Q
0R
0S
1V
1(!
1*!
03!
1/!
16!
1.!
10
0-
0,
0+
04
12
01
0^
1b
0)!
13!
02!
01!
1<
08
07!
0e
0h
0i
0j
1`
1a
0b
12!
11!
0/!
0<
1;
1:
0D
0C
0B
0?
1^
0`
0a
0;
0:
18
#810000
1!
1n
0+!
1&!
0u
0t
0s
0p
1P
1S
1T
1U
02!
10!
1/!
0(!
0*!
1/
1.
1-
1*
0^
0_
1a
1)!
12!
1;
09
08
0a
05!
01!
00!
0;
1_
1`
1d
1>
1:
19
#820000
1"
0!
0n
1l
1+!
0&!
1v
1t
1s
0r
1p
1*!
0P
1R
0S
0T
0V
15!
02!
0*!
00
0.
0-
1,
0*
1a
0d
04!
12!
11!
10!
0/!
0>
1;
1^
0_
0`
0a
1c
1=
0;
0:
09
18
#830000
1!
1n
0+!
1&!
0t
1r
0R
1T
05!
14!
01!
00!
1/!
1*!
1.
0,
0^
1_
1`
0c
1d
15!
1>
0=
1:
19
08
0d
0>
#840000
1#
0"
0!
0n
0l
1o
1+!
0&!
1u
0s
0p
0*!
1-!
0)!
1P
1S
0U
03!
11!
10!
1(!
1*!
06!
0.!
0/
1-
1*
0_
0`
1b
0-!
1)!
04!
1<
0:
09
17!
1e
1h
1i
1j
1c
16!
1.!
05!
02!
1=
1D
1C
1B
1?
1a
1d
15!
14!
13!
01!
00!
1>
1;
07!
0e
0h
0i
0j
1_
1`
0b
0c
0d
0>
0=
0<
1:
19
0D
0C
0B
0?
#850000
1!
1n
0+!
1&!
1s
0q
1p
0P
1Q
0S
12!
0(!
0*!
0-
1+
0*
0a
1-!
0)!
05!
0;
1d
06!
0.!
15!
11!
10!
1>
0_
0`
0d
05!
0>
0:
09
17!
1e
1h
1i
1j
1d
1>
1D
1C
1B
1?
#860000
1"
0!
0n
1l
1+!
0&!
1t
1*!
0T
15!
04!
03!
0*!
0.
1b
1c
0d
05!
02!
0/!
0>
1=
1<
1^
1a
1d
1>
1;
18
#870000
1!
1n
0+!
1&!
0v
0u
0t
0s
1q
0Q
1S
1T
1U
1V
14!
13!
12!
1/!
1*!
10
1/
1.
1-
0+
0^
0a
0b
0c
15!
04!
01!
0=
0<
0;
08
1`
1c
0d
0>
1=
1:
#880000
1$
0#
0"
0!
0n
0l
0o
1m
1+!
0&!
1v
1u
1t
1s
0*!
0-!
1)!
1.!
0S
0T
0U
0V
11!
0/!
1(!
1*!
0.!
00
0/
0.
0-
1^
0`
0)!
05!
03!
02!
1/!
0:
18
0^
1a
1b
1d
15!
12!
1>
1<
1;
08
0a
0d
0>
0;
#890000
1!
1n
0+!
1&!
0t
1T
13!
01!
0(!
0*!
1.
1`
0b
1)!
05!
14!
11!
0<
1:
0`
0c
1d
15!
03!
02!
0/!
1>
0=
0:
1^
1a
1b
0d
0>
1<
1;
18
#900000
1"
0!
0n
1l
1+!
0&!
1t
0s
1*!
1S
0T
05!
04!
1/!
0*!
0.
1-
0^
1c
1d
15!
14!
12!
00!
1>
1=
08
1_
0a
0c
0d
0>
0=
0;
19
#910000
1!
1n
0+!
1&!
1s
0q
0p
1P
1Q
0S
02!
10!
0/!
1*!
0-
1+
1*
1^
0_
1a
13!
12!
00!
1/!
1;
09
18
0^
1_
0a
0b
0<
0;
19
08
#920000
1#
0"
0!
0n
0l
1o
1+!
0&!
0v
0r
1p
0*!
1-!
0)!
0P
1R
1V
05!
04!
03!
02!
10!
0/!
1(!
1*!
1.!
10
1,
0*
1^
0_
1a
1b
1c
1d
0-!
1)!
15!
14!
13!
12!
00!
1>
1=
1<
1;
09
18
1_
0a
0b
0c
0d
0.!
02!
01!
1/!
0>
0=
0<
0;
19
0^
1`
1a
05!
04!
03!
11!
10!
1;
1:
08
0_
0`
1b
1c
1d
1>
1=
1<
0:
09
#930000
1!
1n
0+!
1&!
1v
0u
1r
1q
0p
1P
0Q
0R
1U
0V
15!
14!
13!
12!
00!
0(!
0*!
00
1/
0,
0+
1*
1_
0a
0b
0c
0d
1-!
0)!
03!
02!
10!
0/!
0>
0=
0<
0;
19
1^
0_
1a
1b
1.!
05!
13!
12!
1/!
1<
1;
09
18
0^
0a
0b
1d
15!
1>
0<
0;
08
0d
0>
#940000
1"
0!
0n
1l
1+!
0&!
1u
0r
0q
1p
1*!
0P
1Q
1R
0U
00!
0/!
0*!
0/
1,
1+
0*
1^
1_
03!
10!
1/!
19
18
0^
0_
1b
1<
09
08
#950000
1!
1n
0+!
1&!
0s
1S
13!
1*!
1-
0b
02!
0<
1a
1;
#960000
1&
0%
0$
0#
0"
0!
0n
0l
0o
0m
0y
1x
0v
1s
1r
1q
0*!
0-!
1)!
0.!
1!!
0'!
0[
0Q
0R
0S
1V
03!
0/!
16!
1.!
1(!
1*!
10
0-
0,
0+
05
1^
1b
13!
12!
01!
00!
1/!
0)!
1<
18
07!
0e
0h
0i
0j
0^
1_
1`
0a
0b
02!
11!
10!
0<
0;
1:
19
08
0D
0C
0B
0?
0_
0`
1a
1;
0:
09
#970000
1!
1n
1+!
0u
0t
0s
0p
1P
1S
1T
1U
12!
00!
0/!
1/
1.
1-
1*
1^
1_
0a
0;
19
18
#980000
1"
0!
0n
1l
0+!
1v
1t
1s
0r
1p
0(!
0*!
0P
1R
0S
0T
0V
10!
1/!
1)!
00
0.
0-
1,
0*
0^
0_
05!
01!
00!
09
08
1_
1`
1d
1>
1:
19
#990000
1!
1n
1+!
0t
1r
0R
1T
15!
04!
11!
10!
0/!
1.
0,
1^
0_
0`
1c
0d
0>
1=
0:
09
18
