Projetos_digitais/Placar/simulation/qsim/Placar.msim.vcd
$comment
	File created using the following command:
		vcd file Placar.msim.vcd -direction
$end
$date
	Mon Dec 12 11:02:04 2022
$end
$version
	ModelSim Version 10.5b
$end
$timescale
	1ps
$end

$scope module placar_vhd_vec_tst $end
$var wire 1 ! a [2] $end
$var wire 1 " a [1] $end
$var wire 1 # a [0] $end
$var wire 1 $ Clock $end
$var wire 1 % inverter $end
$var wire 1 & reset $end

$scope module i1 $end
$var wire 1 ' gnd $end
$var wire 1 ( vcc $end
$var wire 1 ) unknown $end
$var wire 1 * devoe $end
$var wire 1 + devclrn $end
$var wire 1 , devpor $end
$var wire 1 - ww_devoe $end
$var wire 1 . ww_devclrn $end
$var wire 1 / ww_devpor $end
$var wire 1 0 ww_a [2] $end
$var wire 1 1 ww_a [1] $end
$var wire 1 2 ww_a [0] $end
$var wire 1 3 ww_Clock $end
$var wire 1 4 ww_reset $end
$var wire 1 5 ww_inverter $end
$var wire 1 6 \~QUARTUS_CREATED_ADC1~_CHSEL_bus\ [4] $end
$var wire 1 7 \~QUARTUS_CREATED_ADC1~_CHSEL_bus\ [3] $end
$var wire 1 8 \~QUARTUS_CREATED_ADC1~_CHSEL_bus\ [2] $end
$var wire 1 9 \~QUARTUS_CREATED_ADC1~_CHSEL_bus\ [1] $end
$var wire 1 : \~QUARTUS_CREATED_ADC1~_CHSEL_bus\ [0] $end
$var wire 1 ; \~QUARTUS_CREATED_ADC2~_CHSEL_bus\ [4] $end
$var wire 1 < \~QUARTUS_CREATED_ADC2~_CHSEL_bus\ [3] $end
$var wire 1 = \~QUARTUS_CREATED_ADC2~_CHSEL_bus\ [2] $end
$var wire 1 > \~QUARTUS_CREATED_ADC2~_CHSEL_bus\ [1] $end
$var wire 1 ? \~QUARTUS_CREATED_ADC2~_CHSEL_bus\ [0] $end
$var wire 1 @ \reset~inputclkctrl_INCLK_bus\ [3] $end
$var wire 1 A \reset~inputclkctrl_INCLK_bus\ [2] $end
$var wire 1 B \reset~inputclkctrl_INCLK_bus\ [1] $end
$var wire 1 C \reset~inputclkctrl_INCLK_bus\ [0] $end
$var wire 1 D \Clock~inputclkctrl_INCLK_bus\ [3] $end
$var wire 1 E \Clock~inputclkctrl_INCLK_bus\ [2] $end
$var wire 1 F \Clock~inputclkctrl_INCLK_bus\ [1] $end
$var wire 1 G \Clock~inputclkctrl_INCLK_bus\ [0] $end
$var wire 1 H \~QUARTUS_CREATED_GND~I_combout\ $end
$var wire 1 I \~QUARTUS_CREATED_UNVM~~busy\ $end
$var wire 1 J \~QUARTUS_CREATED_ADC1~~eoc\ $end
$var wire 1 K \~QUARTUS_CREATED_ADC2~~eoc\ $end
$var wire 1 L \a[2]~output_o\ $end
$var wire 1 M \a[1]~output_o\ $end
$var wire 1 N \a[0]~output_o\ $end
$var wire 1 O \Clock~input_o\ $end
$var wire 1 P \Clock~inputclkctrl_outclk\ $end
$var wire 1 Q \inst|Add0~1_cout\ $end
$var wire 1 R \inst|Add0~2_combout\ $end
$var wire 1 S \inst|contagem[1]~feeder_combout\ $end
$var wire 1 T \reset~input_o\ $end
$var wire 1 U \reset~inputclkctrl_outclk\ $end
$var wire 1 V \inverter~input_o\ $end
$var wire 1 W \inst|contagem[0]~0_combout\ $end
$var wire 1 X \inst|Add0~3\ $end
$var wire 1 Y \inst|Add0~5\ $end
$var wire 1 Z \inst|Add0~6_combout\ $end
$var wire 1 [ \inst|Equal0~8_combout\ $end
$var wire 1 \ \inst|Add0~7\ $end
$var wire 1 ] \inst|Add0~8_combout\ $end
$var wire 1 ^ \inst|Add0~9\ $end
$var wire 1 _ \inst|Add0~10_combout\ $end
$var wire 1 ` \inst|Add0~11\ $end
$var wire 1 a \inst|Add0~12_combout\ $end
$var wire 1 b \inst|Add0~13\ $end
$var wire 1 c \inst|Add0~14_combout\ $end
$var wire 1 d \inst|Add0~15\ $end
$var wire 1 e \inst|Add0~16_combout\ $end
$var wire 1 f \inst|Add0~17\ $end
$var wire 1 g \inst|Add0~18_combout\ $end
$var wire 1 h \inst|Add0~19\ $end
$var wire 1 i \inst|Add0~20_combout\ $end
$var wire 1 j \inst|Add0~21\ $end
$var wire 1 k \inst|Add0~22_combout\ $end
$var wire 1 l \inst|Add0~23\ $end
$var wire 1 m \inst|Add0~24_combout\ $end
$var wire 1 n \inst|Add0~25\ $end
$var wire 1 o \inst|Add0~26_combout\ $end
$var wire 1 p \inst|Add0~27\ $end
$var wire 1 q \inst|Add0~28_combout\ $end
$var wire 1 r \inst|Add0~29\ $end
$var wire 1 s \inst|Add0~30_combout\ $end
$var wire 1 t \inst|Equal0~5_combout\ $end
$var wire 1 u \inst|Equal0~7_combout\ $end
$var wire 1 v \inst|Equal0~6_combout\ $end
$var wire 1 w \inst|Equal0~9_combout\ $end
$var wire 1 x \inst|Add0~31\ $end
$var wire 1 y \inst|Add0~32_combout\ $end
$var wire 1 z \inst|Add0~33\ $end
$var wire 1 { \inst|Add0~34_combout\ $end
$var wire 1 | \inst|Add0~35\ $end
$var wire 1 } \inst|Add0~36_combout\ $end
$var wire 1 ~ \inst|Add0~37\ $end
$var wire 1 !! \inst|Add0~38_combout\ $end
$var wire 1 "! \inst|Add0~39\ $end
$var wire 1 #! \inst|Add0~40_combout\ $end
$var wire 1 $! \inst|Add0~41\ $end
$var wire 1 %! \inst|Add0~42_combout\ $end
$var wire 1 &! \inst|Add0~43\ $end
$var wire 1 '! \inst|Add0~44_combout\ $end
$var wire 1 (! \inst|Add0~45\ $end
$var wire 1 )! \inst|Add0~46_combout\ $end
$var wire 1 *! \inst|Add0~47\ $end
$var wire 1 +! \inst|Add0~48_combout\ $end
$var wire 1 ,! \inst|Add0~49\ $end
$var wire 1 -! \inst|Add0~50_combout\ $end
$var wire 1 .! \inst|Add0~51\ $end
$var wire 1 /! \inst|Add0~52_combout\ $end
$var wire 1 0! \inst|Add0~53\ $end
$var wire 1 1! \inst|Add0~54_combout\ $end
$var wire 1 2! \inst|Equal0~1_combout\ $end
$var wire 1 3! \inst|Equal0~3_combout\ $end
$var wire 1 4! \inst|Add0~55\ $end
$var wire 1 5! \inst|Add0~56_combout\ $end
$var wire 1 6! \inst|Add0~57\ $end
$var wire 1 7! \inst|Add0~58_combout\ $end
$var wire 1 8! \inst|Add0~59\ $end
$var wire 1 9! \inst|Add0~60_combout\ $end
$var wire 1 :! \inst|Add0~61\ $end
$var wire 1 ;! \inst|Add0~62_combout\ $end
$var wire 1 <! \inst|Equal0~0_combout\ $end
$var wire 1 =! \inst|Equal0~2_combout\ $end
$var wire 1 >! \inst|Equal0~4_combout\ $end
$var wire 1 ?! \inst|Equal1~0_combout\ $end
$var wire 1 @! \inst|contagem[0]~1_combout\ $end
$var wire 1 A! \inst|Equal0~10_combout\ $end
$var wire 1 B! \inst|process_0~0_combout\ $end
$var wire 1 C! \inst|Add0~4_combout\ $end
$var wire 1 D! \inst|contagem\ [31] $end
$var wire 1 E! \inst|contagem\ [30] $end
$var wire 1 F! \inst|contagem\ [29] $end
$var wire 1 G! \inst|contagem\ [28] $end
$var wire 1 H! \inst|contagem\ [27] $end
$var wire 1 I! \inst|contagem\ [26] $end
$var wire 1 J! \inst|contagem\ [25] $end
$var wire 1 K! \inst|contagem\ [24] $end
$var wire 1 L! \inst|contagem\ [23] $end
$var wire 1 M! \inst|contagem\ [22] $end
$var wire 1 N! \inst|contagem\ [21] $end
$var wire 1 O! \inst|contagem\ [20] $end
$var wire 1 P! \inst|contagem\ [19] $end
$var wire 1 Q! \inst|contagem\ [18] $end
$var wire 1 R! \inst|contagem\ [17] $end
$var wire 1 S! \inst|contagem\ [16] $end
$var wire 1 T! \inst|contagem\ [15] $end
$var wire 1 U! \inst|contagem\ [14] $end
$var wire 1 V! \inst|contagem\ [13] $end
$var wire 1 W! \inst|contagem\ [12] $end
$var wire 1 X! \inst|contagem\ [11] $end
$var wire 1 Y! \inst|contagem\ [10] $end
$var wire 1 Z! \inst|contagem\ [9] $end
$var wire 1 [! \inst|contagem\ [8] $end
$var wire 1 \! \inst|contagem\ [7] $end
$var wire 1 ]! \inst|contagem\ [6] $end
$var wire 1 ^! \inst|contagem\ [5] $end
$var wire 1 _! \inst|contagem\ [4] $end
$var wire 1 `! \inst|contagem\ [3] $end
$var wire 1 a! \inst|contagem\ [2] $end
$var wire 1 b! \inst|contagem\ [1] $end
$var wire 1 c! \inst|contagem\ [0] $end
$var wire 1 d! \ALT_INV_reset~inputclkctrl_outclk\ $end
$var wire 1 e! \inst|ALT_INV_contagem\ [0] $end
$upscope $end
$upscope $end
$enddefinitions $end
#0
$dumpvars
0$
0%
0&
0'
1(
x)
1*
1+
1,
1-
1.
1/
03
04
05
0H
zI
zJ
zK
0L
0M
1N
0O
0P
1Q
1R
1S
0T
0U
0V
1W
1X
0Y
0Z
1[
1\
0]
0^
0_
1`
0a
0b
0c
1d
0e
0f
0g
1h
0i
0j
0k
1l
0m
0n
0o
1p
0q
0r
0s
1t
1u
1v
1w
1x
0y
0z
0{
1|
0}
0~
0!!
1"!
0#!
0$!
0%!
1&!
0'!
0(!
0)!
1*!
0+!
0,!
0-!
1.!
0/!
00!
01!
12!
13!
14!
05!
06!
07!
18!
09!
0:!
0;!
1<!
1=!
1>!
0?!
1@!
0A!
0B!
0C!
1d!
00
01
12
0D!
0E!
0F!
0G!
0H!
0I!
0J!
0K!
0L!
0M!
0N!
0O!
0P!
0Q!
0R!
0S!
0T!
0U!
0V!
0W!
0X!
0Y!
0Z!
0[!
0\!
0]!
0^!
0_!
0`!
0a!
0b!
0c!
1e!
1D
1E
1F
0G
1@
1A
1B
0C
06
07
08
09
0:
0;
0<
0=
0>
0?
0!
0"
1#
$end
#10000
1$
13
1O
1G
1P
1b!
1c!
0e!
1M
0Q
1?!
0@!
0R
0X
0[
0N
11
0w
1C!
0S
1R
1X
02
1"
0#
0C!
1S
#20000
0$
03
0O
0G
0P
#30000
1$
13
1O
1G
1P
0c!
1e!
1Q
1@!
1N
0R
0X
12
1#
1C!
0S
#40000
0$
03
0O
0G
0P
#50000
1$
13
1O
1G
1P
0b!
1c!
1a!
0e!
1L
0M
0C!
1Y
0Q
0@!
1A!
1R
1X
1[
0N
10
01
1w
1C!
0Y
1S
0R
1Z
02
0"
1!
0#
0S
0Z
1B!
1R
0W
0C!
1Y
1Z
1]
1_
1a
1c
1e
1g
1i
1k
1m
1o
1q
1s
1y
1{
1}
1!!
1#!
1%!
1'!
1)!
1+!
1-!
1/!
11!
15!
17!
19!
1;!
1@!
0Z
0\
1S
0]
1^
0_
0`
0a
1b
0c
0d
0e
1f
0g
0h
0i
1j
0k
0l
0m
1n
0o
0p
0q
1r
0s
0x
0y
1z
0{
0|
0}
1~
0!!
0"!
0#!
1$!
0%!
0&!
0'!
1(!
0)!
0*!
0+!
1,!
0-!
0.!
0/!
10!
01!
04!
05!
16!
07!
08!
09!
1:!
0;!
#60000
0$
03
0O
0G
0P
#70000
1$
13
1O
1G
1P
#80000
0$
03
0O
0G
0P
#90000
1$
13
1O
1G
1P
#100000
0$
03
0O
0G
0P
#110000
1$
13
1O
1G
1P
#120000
0$
03
0O
0G
0P
#130000
1$
13
1O
1G
1P
#140000
0$
03
0O
0G
0P
#150000
1$
13
1O
1G
1P
#160000
0$
03
0O
0G
0P
#170000
1$
13
1O
1G
1P
#180000
0$
03
0O
0G
0P
#190000
1$
13
1O
1G
1P
#200000
0$
03
0O
0G
0P
#210000
1$
13
1O
1G
1P
#220000
0$
03
0O
0G
0P
#230000
1$
13
1O
1G
1P
#240000
0$
03
0O
0G
0P
#250000
1$
13
1O
1G
1P
#260000
0$
03
0O
0G
0P
#270000
1$
13
1O
1G
1P
#280000
0$
03
0O
0G
0P
#290000
1$
13
1O
1G
1P
#300000
0$
03
0O
0G
0P
#310000
1$
13
1O
1G
1P
#320000
0$
03
0O
0G
0P
#330000
1$
13
1O
1G
1P
#340000
0$
03
0O
0G
0P
#350000
1$
13
1O
1G
1P
#360000
0$
03
0O
0G
0P
#370000
1$
13
1O
1G
1P
#380000
0$
03
0O
0G
0P
#390000
1$
13
1O
1G
1P
#400000
0$
03
0O
0G
0P
#410000
1$
13
1O
1G
1P
#420000
0$
03
0O
0G
0P
#430000
1$
13
1O
1G
1P
#440000
0$
1%
03
15
1V
0O
0G
1W
0@!
0P
#450000
1$
13
1O
1G
1P
1b!
0c!
0a!
1e!
0L
1M
1C!
0Y
1Q
0?!
1@!
0A!
0R
0X
0[
1N
00
11
0w
0C!
1Y
0S
0W
0@!
1R
1Z
1\
12
1"
0!
1#
1]
0^
1S
0Z
0\
1?!
1W
1@!
0]
1^
1_
1`
1a
0b
0_
0`
0a
1b
1c
1d
1e
0f
0c
0d
0e
1f
1g
1h
1i
0j
0g
0h
0i
1j
1k
1l
1m
0n
0k
0l
0m
1n
1o
1p
1q
0r
0o
0p
0q
1r
1s
1x
1y
0z
0s
0x
0y
1z
1{
1|
1}
0~
0{
0|
0}
1~
1!!
1"!
1#!
0$!
0!!
0"!
0#!
1$!
1%!
1&!
1'!
0(!
0%!
0&!
0'!
1(!
1)!
1*!
1+!
0,!
0)!
0*!
0+!
1,!
1-!
1.!
1/!
00!
0-!
0.!
0/!
10!
11!
14!
15!
06!
01!
04!
05!
16!
17!
18!
19!
0:!
07!
08!
09!
1:!
1;!
0;!
#460000
0$
03
0O
0G
0P
#470000
1$
13
1O
1G
1P
1c!
0e!
0Q
0@!
0N
0R
02
0#
0S
#480000
0$
03
0O
0G
0P
#490000
1$
13
1O
1G
1P
0b!
0c!
1e!
0M
1Q
1@!
1R
1X
1[
1N
01
1w
1C!
0Y
1S
0R
0X
12
0"
1#
0C!
1Y
0S
1Z
1\
0?!
0W
0@!
1]
0^
0Z
0\
0]
1^
1_
1`
1a
0b
0_
0`
0a
1b
1c
1d
1e
0f
0c
0d
0e
1f
1g
1h
1i
0j
0g
0h
0i
1j
1k
1l
1m
0n
0k
0l
0m
1n
1o
1p
1q
0r
0o
0p
0q
1r
1s
1x
1y
0z
0s
0x
0y
1z
1{
1|
1}
0~
0{
0|
0}
1~
1!!
1"!
1#!
0$!
0!!
0"!
0#!
1$!
1%!
1&!
1'!
0(!
0%!
0&!
0'!
1(!
1)!
1*!
1+!
0,!
0)!
0*!
0+!
1,!
1-!
1.!
1/!
00!
0-!
0.!
0/!
10!
11!
14!
15!
06!
01!
04!
05!
16!
17!
18!
19!
0:!
07!
08!
09!
1:!
1;!
0;!
#500000
0$
03
0O
0G
0P
#510000
1$
13
1O
1G
1P
#520000
0$
03
0O
0G
0P
#530000
1$
13
1O
1G
1P
#540000
0$
03
0O
0G
0P
#550000
1$
13
1O
1G
1P
#560000
0$
03
0O
0G
0P
#570000
1$
13
1O
1G
1P
#580000
0$
03
0O
0G
0P
#590000
1$
13
1O
1G
1P
#600000
0$
0%
03
05
0V
0O
0G
0B!
1R
1X
1W
1C!
0Y
1Z
1\
1]
0^
1_
1`
1a
0b
1c
1d
1e
0f
1g
1h
1i
0j
1k
1l
1m
0n
1o
1p
1q
0r
1s
1x
1y
0z
1{
1|
1}
0~
1!!
1"!
1#!
0$!
1%!
1&!
1'!
0(!
1)!
1*!
1+!
0,!
1-!
1.!
1/!
00!
11!
14!
15!
06!
17!
18!
19!
0:!
1;!
1@!
0P
0;!
09!
07!
05!
01!
0/!
0-!
0+!
0)!
0'!
0%!
0#!
0!!
0}
0{
0y
0s
0q
0o
0m
0k
0i
0g
0e
0c
0a
0_
0]
0Z
0C!
1S
#610000
1$
13
1O
1G
1P
1b!
1c!
0e!
1M
0Q
1?!
0@!
0R
0X
0[
0N
11
0w
1C!
0S
1R
1X
02
1"
0#
0C!
1S
#620000
0$
03
0O
0G
0P
#630000
1$
13
1O
1G
1P
0c!
1e!
1Q
1@!
1N
0R
0X
12
1#
1C!
0S
#640000
0$
03
0O
0G
0P
#650000
1$
13
1O
1G
1P
0b!
1c!
1a!
0e!
1L
0M
0C!
1Y
0Q
0@!
1A!
1R
1X
1[
0N
10
01
1w
1C!
0Y
1S
0R
1Z
02
0"
1!
0#
0S
0Z
1B!
1R
0W
0C!
1Y
1Z
1]
1_
1a
1c
1e
1g
1i
1k
1m
1o
1q
1s
1y
1{
1}
1!!
1#!
1%!
1'!
1)!
1+!
1-!
1/!
11!
15!
17!
19!
1;!
1@!
0Z
0\
1S
0]
1^
0_
0`
0a
1b
0c
0d
0e
1f
0g
0h
0i
1j
0k
0l
0m
1n
0o
0p
0q
1r
0s
0x
0y
1z
0{
0|
0}
1~
0!!
0"!
0#!
1$!
0%!
0&!
0'!
1(!
0)!
0*!
0+!
1,!
0-!
0.!
0/!
10!
01!
04!
05!
16!
07!
08!
09!
1:!
0;!
#660000
0$
03
0O
0G
0P
#670000
1$
13
1O
1G
1P
#680000
0$
03
0O
0G
0P
#690000
1$
13
1O
1G
1P
#700000
0$
03
0O
0G
0P
#710000
1$
13
1O
1G
1P
#720000
0$
03
0O
0G
0P
#730000
1$
13
1O
1G
1P
#740000
0$
03
0O
0G
0P
#750000
1$
13
1O
1G
1P
#760000
0$
03
0O
0G
0P
#770000
1$
13
1O
1G
1P
#780000
0$
03
0O
0G
0P
#790000
1$
13
1O
1G
1P
#800000
0$
03
0O
0G
0P
#810000
1$
13
1O
1G
1P
#820000
0$
03
0O
0G
0P
#830000
1$
13
1O
1G
1P
#840000
0$
03
0O
0G
0P
#850000
1$
13
1O
1G
1P
#860000
0$
03
0O
0G
0P
#870000
1$
13
1O
1G
1P
#880000
0$
03
0O
0G
0P
#890000
1$
13
1O
1G
1P
#900000
0$
03
0O
0G
0P
#910000
1$
13
1O
1G
1P
#920000
0$
03
0O
0G
0P
#930000
1$
13
1O
1G
1P
#940000
0$
03
0O
0G
0P
#950000
1$
13
1O
1G
1P
#960000
0$
03
0O
0G
0P
#970000
1$
13
1O
1G
1P
#980000
0$
03
0O
0G
0P
#990000
1$
13
1O
1G
1P
