Projetos_digitais/Lab4/simulation/qsim/Lab4.msim.vcd
$comment
	File created using the following command:
		vcd file Lab4.msim.vcd -direction
$end
$date
	Mon Oct 17 20:05:07 2022
$end
$version
	ModelSim Version 10.5b
$end
$timescale
	1ps
$end

$scope module Lab4_vlg_vec_tst $end
$var reg 1 ! Clear $end
$var reg 1 " Clock $end
$var reg 1 # Inv $end
$var wire 1 $ Fa $end
$var wire 1 % Fb $end
$var wire 1 & Fc $end
$var wire 1 ' Fd $end
$var wire 1 ( Fe $end
$var wire 1 ) Ff $end
$var wire 1 * Fg $end

$scope module i1 $end
$var wire 1 + gnd $end
$var wire 1 , vcc $end
$var wire 1 - unknown $end
$var tri1 1 . devclrn $end
$var tri1 1 / devpor $end
$var tri1 1 0 devoe $end
$var wire 1 1 ~QUARTUS_CREATED_GND~I_combout $end
$var wire 1 2 ~QUARTUS_CREATED_UNVM~~busy $end
$var wire 1 3 ~QUARTUS_CREATED_ADC1~~eoc $end
$var wire 1 4 ~QUARTUS_CREATED_ADC2~~eoc $end
$var wire 1 5 Fa~output_o $end
$var wire 1 6 Fb~output_o $end
$var wire 1 7 Fc~output_o $end
$var wire 1 8 Fd~output_o $end
$var wire 1 9 Fe~output_o $end
$var wire 1 : Ff~output_o $end
$var wire 1 ; Fg~output_o $end
$var wire 1 < Clock~input_o $end
$var wire 1 = inst|inst~0_combout $end
$var wire 1 > inst|inst~feeder_combout $end
$var wire 1 ? Clear~input_o $end
$var wire 1 @ inst|inst~q $end
$var wire 1 A inst|inst1~0_combout $end
$var wire 1 B inst|inst1~q $end
$var wire 1 C inst|inst2~0_combout $end
$var wire 1 D inst|inst2~q $end
$var wire 1 E inst|inst3~0_combout $end
$var wire 1 F inst|inst3~q $end
$var wire 1 G inst2|inst2|inst10~4_combout $end
$var wire 1 H Inv~input_o $end
$var wire 1 I inst2|inst2|inst10~5_combout $end
$var wire 1 J inst2|inst2|inst51|inst3~4_combout $end
$var wire 1 K inst2|inst2|inst51|inst3~5_combout $end
$var wire 1 L inst2|inst2|inst52|inst3~4_combout $end
$var wire 1 M inst2|inst2|inst52|inst3~5_combout $end
$var wire 1 N inst2|inst2|inst53|inst3~4_combout $end
$var wire 1 O inst2|inst2|inst53|inst3~5_combout $end
$var wire 1 P inst2|inst2|inst38~4_combout $end
$var wire 1 Q inst2|inst2|inst38~5_combout $end
$var wire 1 R inst2|inst2|inst54|inst3~4_combout $end
$var wire 1 S inst2|inst2|inst54|inst3~5_combout $end
$var wire 1 T inst2|inst2|inst55|inst3~4_combout $end
$var wire 1 U inst2|inst2|inst55|inst3~5_combout $end
$upscope $end
$upscope $end
$enddefinitions $end
#0
$dumpvars
1!
0"
1#
0$
0%
1&
0'
0(
1)
0*
0+
1,
x-
1.
1/
10
01
z2
z3
z4
05
06
17
08
09
1:
0;
0<
1=
1>
1?
0@
1A
0B
1C
0D
1E
0F
0G
1H
0I
1J
1K
0L
0M
1N
1O
1P
1Q
0R
0S
0T
1U
$end
#10000
1"
1<
1@
0U
0P
0N
1M
1G
0=
07
1;
0Q
0O
1*
0&
1I
0>
15
18
19
1(
1'
1$
#20000
0"
0<
#30000
1"
1<
0@
1U
1P
1N
0M
0G
1=
17
0;
1Q
1O
0*
1&
0I
1>
05
08
09
0(
0'
0$
1B
1R
0P
1L
1G
0A
1S
0Q
1M
07
19
0:
0)
1(
0&
#40000
0"
0<
#50000
1"
1<
1@
0U
1P
0G
0=
1;
1Q
1*
0>
09
0(
#60000
0"
0<
#70000
1"
1<
0@
1U
0P
1G
1=
0;
0Q
0*
1>
19
1(
0B
0R
1P
0L
0G
1A
1I
15
0S
1Q
0M
1$
0I
05
17
09
1:
1)
0(
1&
0$
1D
1T
1S
0P
0N
1L
1G
0C
0:
0Q
0O
1M
0)
1I
15
07
18
19
1(
1'
0&
1$
#80000
0"
0<
#90000
1"
1<
1@
1N
0K
0G
0=
16
1O
1%
0I
0>
05
08
0'
0$
#100000
0"
0<
#110000
1"
1<
0@
0N
1K
1G
1=
06
0O
0%
1I
1>
15
18
1'
1$
1B
1R
1O
1N
0G
0A
08
0S
0'
0I
05
1:
1)
0$
#120000
0"
0<
#130000
1"
1<
1@
1S
1P
0N
0K
0=
16
0:
1Q
0)
1%
0>
09
0(
#140000
0"
0<
#150000
1"
1<
0@
0S
0P
1N
1K
1=
06
1:
0Q
1)
0%
1>
19
1(
0B
0R
0N
1G
1A
1S
0O
1I
15
18
0:
0)
1'
1$
0D
0T
0S
1P
1N
0L
0G
1C
1:
1Q
1O
0M
1)
0I
05
17
08
09
0(
0'
1&
0$
1F
0U
1T
1R
1L
0E
1;
1U
1S
1M
1*
07
0:
0;
0*
0)
0&
#160000
0"
0<
#170000
1"
1<
1@
0Q
0P
0N
0=
19
1Q
0O
1(
0>
18
09
0(
1'
#180000
0"
0<
#190000
1"
1<
0@
0Q
1P
1N
1=
19
1Q
1O
1(
1>
08
09
0(
0'
1B
0T
0Q
0P
0L
0J
0A
19
0U
1Q
0M
0K
1(
16
17
09
1;
1*
0(
1&
1%
#200000
0"
0<
#210000
1"
1<
1@
1U
0Q
1P
1G
0=
19
0;
1Q
0*
1(
0>
09
0(
#220000
0"
0<
#230000
1"
1<
0@
0U
0Q
0P
0G
1=
19
1;
1Q
1*
1(
1>
09
0(
0B
1T
0Q
1P
1L
1J
1A
19
1U
1Q
1M
1K
1(
06
07
09
0;
0*
0(
0&
0%
1D
0T
0S
0P
0N
0C
1:
0U
0Q
0O
1)
18
19
1;
1*
1(
1'
#240000
0"
0<
#250000
1"
1<
1@
1U
1S
1Q
1N
0K
1G
0=
16
09
0:
0;
1O
0*
0)
0(
1%
1I
0>
15
08
0'
1$
#260000
0"
0<
#270000
1"
1<
0@
0U
0S
0Q
0N
1K
0G
1=
06
19
1:
1;
0O
1*
1)
1(
0%
0I
1>
05
18
1'
0$
1B
1T
1Q
1N
0L
0J
1G
0A
09
1U
1O
0(
1I
15
08
0;
0*
0'
1$
#280000
0"
0<
#290000
1"
1<
1@
1S
0Q
1P
0N
0M
0K
0G
0=
16
17
19
0:
1Q
0O
0)
1(
1&
1%
0I
0>
05
18
09
0(
1'
0$
#300000
0"
0<
#310000
1"
1<
0@
0S
0Q
0P
1N
1M
1K
1G
1=
06
07
19
1:
1Q
1O
1)
1(
0&
0%
1I
1>
15
08
09
0(
0'
1$
0B
0T
0Q
0N
1L
1J
0G
1A
19
0U
0O
1(
0I
05
18
1;
1*
1'
0$
0D
1T
1S
1P
1N
1C
0:
1U
1Q
1O
0)
08
09
0;
0*
0(
0'
0F
0T
0R
0L
1E
0S
0M
17
1:
1)
1&
#320000
0"
0<
#330000
1"
1<
1@
0U
0P
0N
1M
1G
0=
07
1;
0Q
0O
1*
0&
1I
0>
15
18
19
1(
1'
1$
#340000
0"
0<
#350000
1"
1<
0@
1U
1P
1N
0M
0G
1=
17
0;
1Q
1O
0*
1&
0I
1>
05
08
09
0(
0'
0$
1B
1R
0P
1L
1G
0A
1S
0Q
1M
07
19
0:
0)
1(
0&
#360000
0"
0<
#370000
1"
1<
1@
0U
1P
0G
0=
1;
1Q
1*
0>
09
0(
#380000
0"
0<
#390000
1"
1<
0@
1U
0P
1G
1=
0;
0Q
0*
1>
19
1(
0B
0R
1P
0L
0G
1A
1I
15
0S
1Q
0M
1$
0I
05
17
09
1:
1)
0(
1&
0$
1D
1T
1S
0P
0N
1L
1G
0C
0:
0Q
0O
1M
0)
1I
15
07
18
19
1(
1'
0&
1$
#400000
0"
0<
#410000
1"
1<
1@
1N
0K
0G
0=
16
1O
1%
0I
0>
05
08
0'
0$
#420000
0"
0<
#430000
1"
1<
0@
0N
1K
1G
1=
06
0O
0%
1I
1>
15
18
1'
1$
1B
1R
1O
1N
0G
0A
08
0S
0'
0I
05
1:
1)
0$
#440000
0"
0<
#450000
1"
1<
1@
1S
1P
0N
0K
0=
16
0:
1Q
0)
1%
0>
09
0(
#460000
0"
0<
#470000
1"
1<
0@
0S
0P
1N
1K
1=
06
1:
0Q
1)
0%
1>
19
1(
0B
0R
0N
1G
1A
1S
0O
1I
15
18
0:
0)
1'
1$
0D
0T
0S
1P
1N
0L
0G
1C
1:
1Q
1O
0M
1)
0I
05
17
08
09
0(
0'
1&
0$
1F
0U
1T
1R
1L
0E
1;
1U
1S
1M
1*
07
0:
0;
0*
0)
0&
#480000
0"
0<
#490000
1"
1<
1@
0Q
0P
0N
0=
19
1Q
0O
1(
0>
18
09
0(
1'
#500000
0"
0<
#510000
1"
1<
0@
0Q
1P
1N
1=
19
1Q
1O
1(
1>
08
09
0(
0'
1B
0T
0Q
0P
0L
0J
0A
19
0U
1Q
0M
0K
1(
16
17
09
1;
1*
0(
1&
1%
#520000
0"
0<
#530000
1"
1<
1@
1U
0Q
1P
1G
0=
19
0;
1Q
0*
1(
0>
09
0(
#540000
0"
0<
#550000
1"
1<
0@
0U
0Q
0P
0G
1=
19
1;
1Q
1*
1(
1>
09
0(
0B
1T
0Q
1P
1L
1J
1A
19
1U
1Q
1M
1K
1(
06
07
09
0;
0*
0(
0&
0%
1D
0T
0S
0P
0N
0C
1:
0U
0Q
0O
1)
18
19
1;
1*
1(
1'
#560000
0"
0<
#570000
1"
1<
1@
1U
1S
1Q
1N
0K
1G
0=
16
09
0:
0;
1O
0*
0)
0(
1%
1I
0>
15
08
0'
1$
#580000
0"
0<
#590000
1"
1<
0@
0U
0S
0Q
0N
1K
0G
1=
06
19
1:
1;
0O
1*
1)
1(
0%
0I
1>
05
18
1'
0$
1B
1T
1Q
1N
0L
0J
1G
0A
09
1U
1O
0(
1I
15
08
0;
0*
0'
1$
#600000
0"
0<
#610000
1"
1<
1@
1S
0Q
1P
0N
0M
0K
0G
0=
16
17
19
0:
1Q
0O
0)
1(
1&
1%
0I
0>
05
18
09
0(
1'
0$
#620000
0"
0<
#630000
1"
1<
0@
0S
0Q
0P
1N
1M
1K
1G
1=
06
07
19
1:
1Q
1O
1)
1(
0&
0%
1I
1>
15
08
09
0(
0'
1$
0B
0T
0Q
0N
1L
1J
0G
1A
19
0U
0O
1(
0I
05
18
1;
1*
1'
0$
0D
1T
1S
1P
1N
1C
0:
1U
1Q
1O
0)
08
09
0;
0*
0(
0'
0F
0T
0R
0L
1E
0S
0M
17
1:
1)
1&
#640000
0"
0<
#650000
1"
1<
1@
0U
0P
0N
1M
1G
0=
07
1;
0Q
0O
1*
0&
1I
0>
15
18
19
1(
1'
1$
#660000
0"
0<
#670000
1"
1<
0@
1U
1P
1N
0M
0G
1=
17
0;
1Q
1O
0*
1&
0I
1>
05
08
09
0(
0'
0$
1B
1R
0P
1L
1G
0A
1S
0Q
1M
07
19
0:
0)
1(
0&
#680000
0"
0<
#690000
1"
1<
1@
0U
1P
0G
0=
1;
1Q
1*
0>
09
0(
#700000
0"
0<
#710000
1"
1<
0@
1U
0P
1G
1=
0;
0Q
0*
1>
19
1(
0B
0R
1P
0L
0G
1A
1I
15
0S
1Q
0M
1$
0I
05
17
09
1:
1)
0(
1&
0$
1D
1T
1S
0P
0N
1L
1G
0C
0:
0Q
0O
1M
0)
1I
15
07
18
19
1(
1'
0&
1$
#720000
0"
0<
#730000
1"
1<
1@
1N
0K
0G
0=
16
1O
1%
0I
0>
05
08
0'
0$
#740000
0"
0<
#750000
1"
1<
0@
0N
1K
1G
1=
06
0O
0%
1I
1>
15
18
1'
1$
1B
1R
1O
1N
0G
0A
08
0S
0'
0I
05
1:
1)
0$
#760000
0"
0<
#770000
1"
1<
1@
1S
1P
0N
0K
0=
16
0:
1Q
0)
1%
0>
09
0(
#780000
0"
0<
#790000
1"
1<
0@
0S
0P
1N
1K
1=
06
1:
0Q
1)
0%
1>
19
1(
0B
0R
0N
1G
1A
1S
0O
1I
15
18
0:
0)
1'
1$
0D
0T
0S
1P
1N
0L
0G
1C
1:
1Q
1O
0M
1)
0I
05
17
08
09
0(
0'
1&
0$
1F
0U
1T
1R
1L
0E
1;
1U
1S
1M
1*
07
0:
0;
0*
0)
0&
#800000
0"
0<
#810000
1"
1<
1@
0Q
0P
0N
0=
19
1Q
0O
1(
0>
18
09
0(
1'
#820000
0"
0<
#830000
1"
1<
0@
0Q
1P
1N
1=
19
1Q
1O
1(
1>
08
09
0(
0'
1B
0T
0Q
0P
0L
0J
0A
19
0U
1Q
0M
0K
1(
16
17
09
1;
1*
0(
1&
1%
#840000
0"
0<
#850000
1"
1<
1@
1U
0Q
1P
1G
0=
19
0;
1Q
0*
1(
0>
09
0(
#860000
0"
0<
#870000
1"
1<
0@
0U
0Q
0P
0G
1=
19
1;
1Q
1*
1(
1>
09
0(
0B
1T
0Q
1P
1L
1J
1A
19
1U
1Q
1M
1K
1(
06
07
09
0;
0*
0(
0&
0%
1D
0T
0S
0P
0N
0C
1:
0U
0Q
0O
1)
18
19
1;
1*
1(
1'
#880000
0"
0<
#890000
1"
1<
1@
1U
1S
1Q
1N
0K
1G
0=
16
09
0:
0;
1O
0*
0)
0(
1%
1I
0>
15
08
0'
1$
#900000
0"
0<
#910000
1"
1<
0@
0U
0S
0Q
0N
1K
0G
1=
06
19
1:
1;
0O
1*
1)
1(
0%
0I
1>
05
18
1'
0$
1B
1T
1Q
1N
0L
0J
1G
0A
09
1U
1O
0(
1I
15
08
0;
0*
0'
1$
#920000
0"
0<
#930000
1"
1<
1@
1S
0Q
1P
0N
0M
0K
0G
0=
16
17
19
0:
1Q
0O
0)
1(
1&
1%
0I
0>
05
18
09
0(
1'
0$
#940000
0"
0<
#950000
1"
1<
0@
0S
0Q
0P
1N
1M
1K
1G
1=
06
07
19
1:
1Q
1O
1)
1(
0&
0%
1I
1>
15
08
09
0(
0'
1$
0B
0T
0Q
0N
1L
1J
0G
1A
19
0U
0O
1(
0I
05
18
1;
1*
1'
0$
0D
1T
1S
1P
1N
1C
0:
1U
1Q
1O
0)
08
09
0;
0*
0(
0'
0F
0T
0R
0L
1E
0S
0M
17
1:
1)
1&
#960000
0"
0<
#970000
1"
1<
1@
0U
0P
0N
1M
1G
0=
07
1;
0Q
0O
1*
0&
1I
0>
15
18
19
1(
1'
1$
#980000
0"
0<
#990000
1"
1<
0@
1U
1P
1N
0M
0G
1=
17
0;
1Q
1O
0*
1&
0I
1>
05
08
09
0(
0'
0$
1B
1R
0P
1L
1G
0A
1S
0Q
1M
07
19
0:
0)
1(
0&
